{
  "title":"Background-clip: text",
  "description":"Non-standard method of clipping a background image to the foreground text.",
  "spec":"https://compat.spec.whatwg.org/#the-webkit-background-clip-property",
  "status":"unoff",
  "links":[
    {
      "url":"https://lists.w3.org/Archives/Public/www-style/2016Mar/0283.html",
      "title":"[css-backgrounds] Standardize 'background-clip: text'"
    },
    {
      "url":"https://drafts.csswg.org/css-backgrounds-4/#background-clip",
      "title":"CSS Backgrounds and Borders Module Level 4"
    },
    {
      "url":"https://developer.mozilla.org/en-US/docs/Web/CSS/background-clip",
      "title":"MDN Web Docs - background-clip"
    }
  ],
  "bugs":[
    
  ],
  "categories":[
    "CSS"
  ],
  "stats":{
    "ie":{
      "5.5":"n",
      "6":"n",
      "7":"n",
      "8":"n",
      "9":"n",
      "10":"n",
      "11":"n"
    },
    "edge":{
      "12":"y x",
      "13":"y x",
      "14":"y x",
      "15":"y",
      "16":"y",
      "17":"y",
      "18":"y",
      "79":"y x",
      "80":"y x",
      "81":"y x",
      "83":"y x",
      "84":"y x",
      "85":"y x",
      "86":"y x",
      "87":"y x",
      "88":"y x",
      "89":"y x",
      "90":"y x",
      "91":"y x",
      "92":"y x",
      "93":"y x",
      "94":"y x",
      "95":"y x",
      "96":"y x",
      "97":"y x",
      "98":"y x",
      "99":"y x",
      "100":"y x",
      "101":"y x",
      "102":"y x",
      "103":"y x",
      "104":"y x",
      "105":"y x",
      "106":"y x",
      "107":"y x",
      "108":"y x",
      "109":"y x",
      "110":"y x",
      "111":"y x",
      "112":"y x",
      "113":"y x",
      "114":"y x",
      "115":"y x",
      "116":"y x",
      "117":"y x",
      "118":"y x"
    },
    "firefox":{
      "2":"n",
      "3":"n",
      "3.5":"n",
      "3.6":"n",
      "4":"n",
      "5":"n",
      "6":"n",
      "7":"n",
      "8":"n",
      "9":"n",
      "10":"n",
      "11":"n",
      "12":"n",
      "13":"n",
      "14":"n",
      "15":"n",
      "16":"n",
      "17":"n",
      "18":"n",
      "19":"n",
      "20":"n",
      "21":"n",
      "22":"n",
      "23":"n",
      "24":"n",
      "25":"n",
      "26":"n",
      "27":"n",
      "28":"n",
      "29":"n",
      "30":"n",
      "31":"n",
      "32":"n",
      "33":"n",
      "34":"n",
      "35":"n",
      "36":"n",
      "37":"n",
      "38":"n",
      "39":"n",
      "40":"n",
      "41":"n",
      "42":"n",
      "43":"n",
      "44":"n",
      "45":"n",
      "46":"n",
      "47":"n",
      "48":"n",
      "49":"y",
      "50":"y",
      "51":"y",
      "52":"y",
      "53":"y",
      "54":"y",
      "55":"y",
      "56":"y",
      "57":"y",
      "58":"y",
      "59":"y",
      "60":"y",
      "61":"y",
      "62":"y",
      "63":"y",
      "64":"y",
      "65":"y",
      "66":"y",
      "67":"y",
      "68":"y",
      "69":"y",
      "70":"y",
      "71":"y",
      "72":"y",
      "73":"y",
      "74":"y",
      "75":"y",
      "76":"y",
      "77":"y",
      "78":"y",
      "79":"y",
      "80":"y",
      "81":"y",
      "82":"y",
      "83":"y",
      "84":"y",
      "85":"y",
      "86":"y",
      "87":"y",
      "88":"y",
      "89":"y",
      "90":"y",
      "91":"y",
      "92":"y",
      "93":"y",
      "94":"y",
      "95":"y",
      "96":"y",
      "97":"y",
      "98":"y",
      "99":"y",
      "100":"y",
      "101":"y",
      "102":"y",
      "103":"y",
      "104":"y",
      "105":"y",
      "106":"y",
      "107":"y",
      "108":"y",
      "109":"y",
      "110":"y",
      "111":"y",
      "112":"y",
      "113":"y",
      "114":"y",
      "115":"y",
      "116":"y",
      "117":"y",
      "118":"y",
      "119":"y",
      "120":"y",
      "121":"y"
    },
    "chrome":{
      "4":"y x",
      "5":"y x",
      "6":"y x",
      "7":"y x",
      "8":"y x",
      "9":"y x",
      "10":"y x",
      "11":"y x",
      "12":"y x",
      "13":"y x",
      "14":"y x",
      "15":"y x",
      "16":"y x",
      "17":"y x",
      "18":"y x",
      "19":"y x",
      "20":"y x",
      "21":"y x",
      "22":"y x",
      "23":"y x",
      "24":"y x",
      "25":"y x",
      "26":"y x",
      "27":"y x",
      "28":"y x",
      "29":"y x",
      "30":"y x",
      "31":"y x",
      "32":"y x",
      "33":"y x",
      "34":"y x",
      "35":"y x",
      "36":"y x",
      "37":"y x",
      "38":"y x",
      "39":"y x",
      "40":"y x",
      "41":"y x",
      "42":"y x",
      "43":"y x",
      "44":"y x",
      "45":"y x",
      "46":"y x",
      "47":"y x",
      "48":"y x",
      "49":"y x",
      "50":"y x",
      "51":"y x",
      "52":"y x",
      "53":"y x",
      "54":"y x",
      "55":"y x",
      "56":"y x",
      "57":"y x",
      "58":"y x",
      "59":"y x",
      "60":"y x",
      "61":"y x",
      "62":"y x",
      "63":"y x",
      "64":"y x",
      "65":"y x",
      "66":"y x",
      "67":"y x",
      "68":"y x",
      "69":"y x",
      "70":"y x",
      "71":"y x",
      "72":"y x",
      "73":"y x",
      "74":"y x",
      "75":"y x",
      "76":"y x",
      "77":"y x",
      "78":"y x",
      "79":"y x",
      "80":"y x",
      "81":"y x",
      "83":"y x",
      "84":"y x",
      "85":"y x",
      "86":"y x",
      "87":"y x",
      "88":"y x",
      "89":"y x",
      "90":"y x",
      "91":"y x",
      "92":"y x",
      "93":"y x",
      "94":"y x",
      "95":"y x",
      "96":"y x",
      "97":"y x",
      "98":"y x",
      "99":"y x",
      "100":"y x",
      "101":"y x",
      "102":"y x",
      "103":"y x",
      "104":"y x",
      "105":"y x",
      "106":"y x",
      "107":"y x",
      "108":"y x",
      "109":"y x",
      "110":"y x",
      "111":"y x",
      "112":"y x",
      "113":"y x",
      "114":"y x",
      "115":"y x",
      "116":"y x",
      "117":"y x",
      "118":"y x",
      "119":"y x",
      "120":"y x",
      "121":"y x"
    },
    "safari":{
      "3.1":"u",
      "3.2":"u",
      "4":"y x",
      "5":"y x",
      "5.1":"y x",
      "6":"y x",
      "6.1":"y x",
      "7":"y x",
      "7.1":"y x",
      "8":"y x",
      "9":"y x",
      "9.1":"y x",
      "10":"y x",
      "10.1":"y x",
      "11":"y x",
      "11.1":"y x",
      "12":"y x",
      "12.1":"y x",
      "13":"y x",
      "13.1":"y x",
      "14":"y",
      "14.1":"y",
      "15":"y",
      "15.1":"y",
      "15.2-15.3":"y",
      "15.4":"y",
      "15.5":"y",
      "15.6":"y",
      "16.0":"y",
      "16.1":"y",
      "16.2":"y",
      "16.3":"y",
      "16.4":"y",
      "16.5":"y",
      "16.6":"y",
      "17.0":"y",
      "17.1":"y",
      "TP":"y"
    },
    "opera":{
      "9":"n",
      "9.5-9.6":"n",
      "10.0-10.1":"n",
      "10.5":"n",
      "10.6":"n",
      "11":"n",
      "11.1":"n",
      "11.5":"n",
      "11.6":"n",
      "12":"n",
      "12.1":"n",
      "15":"y x",
      "16":"y x",
      "17":"y x",
      "18":"y x",
      "19":"y x",
      "20":"y x",
      "21":"y x",
      "22":"y x",
      "23":"y x",
      "24":"y x",
      "25":"y x",
      "26":"y x",
      "27":"y x",
      "28":"y x",
      "29":"y x",
      "30":"y x",
      "31":"y x",
      "32":"y x",
      "33":"y x",
      "34":"y x",
      "35":"y x",
      "36":"y x",
      "37":"y x",
      "38":"y x",
      "39":"y x",
      "40":"y x",
      "41":"y x",
      "42":"y x",
      "43":"y x",
      "44":"y x",
      "45":"y x",
      "46":"y x",
      "47":"y x",
      "48":"y x",
      "49":"y x",
      "50":"y x",
      "51":"y x",
      "52":"y x",
      "53":"y x",
      "54":"y x",
      "55":"y x",
      "56":"y x",
      "57":"y x",
      "58":"y x",
      "60":"y x",
      "62":"y x",
      "63":"y x",
      "64":"y x",
      "65":"y x",
      "66":"y x",
      "67":"y x",
      "68":"y x",
      "69":"y x",
      "70":"y x",
      "71":"y x",
      "72":"y x",
      "73":"y x",
      "74":"y x",
      "75":"y x",
      "76":"y x",
      "77":"y x",
      "78":"y x",
      "79":"y x",
      "80":"y x",
      "81":"y x",
      "82":"y x",
      "83":"y x",
      "84":"y x",
      "85":"y x",
      "86":"y x",
      "87":"y x",
      "88":"y x",
      "89":"y x",
      "90":"y x",
      "91":"y x",
      "92":"y x",
      "93":"y x",
      "94":"y x",
      "95":"y x",
      "96":"y x",
      "97":"y x",
      "98":"y x",
      "99":"y x",
      "100":"y x",
      "101":"y x",
      "102":"y x",
      "103":"y x"
    },
    "ios_saf":{
      "3.2":"u",
      "4.0-4.1":"u",
      "4.2-4.3":"u",
      "5.0-5.1":"u",
      "6.0-6.1":"y x",
      "7.0-7.1":"y x",
      "8":"y x",
      "8.1-8.4":"y x",
      "9.0-9.2":"y x",
      "9.3":"y x",
      "10.0-10.2":"y x",
      "10.3":"y x",
      "11.0-11.2":"y x",
      "11.3-11.4":"y x",
      "12.0-12.1":"y x",
      "12.2-12.5":"y x",
      "13.0-13.1":"y x",
      "13.2":"y x",
      "13.3":"y x",
      "13.4-13.7":"y x",
      "14.0-14.4":"y",
      "14.5-14.8":"y",
      "15.0-15.1":"y",
      "15.2-15.3":"y",
      "15.4":"y",
      "15.5":"y",
      "15.6-15.7":"y",
      "16.0":"y",
      "16.1":"y",
      "16.2":"y",
      "16.3":"y",
      "16.4":"y",
      "16.5":"y",
      "16.6":"y",
      "17.0":"y",
      "17.1":"y"
    },
    "op_mini":{
      "all":"n"
    },
    "android":{
      "2.1":"u",
      "2.2":"u",
      "2.3":"u",
      "3":"u",
      "4":"y x",
      "4.1":"y x",
      "4.2-4.3":"y x",
      "4.4":"y x",
      "4.4.3-4.4.4":"y x",
      "118":"y x"
    },
    "bb":{
      "7":"y x",
      "10":"y x"
    },
    "op_mob":{
      "10":"u",
      "11":"u",
      "11.1":"u",
      "11.5":"u",
      "12":"u",
      "12.1":"u",
      "73":"y x"
    },
    "and_chr":{
      "118":"y x"
    },
    "and_ff":{
      "118":"y"
    },
    "ie_mob":{
      "10":"n",
      "11":"n"
    },
    "and_uc":{
      "15.5":"y x"
    },
    "samsung":{
      "4":"y x",
      "5.0-5.4":"y x",
      "6.2-6.4":"y x",
      "7.2-7.4":"y x",
      "8.2":"y x",
      "9.2":"y x",
      "10.1":"y x",
      "11.1-11.2":"y x",
      "12.0":"y x",
      "13.0":"y x",
      "14.0":"y x",
      "15.0":"y x",
      "16.0":"y x",
      "17.0":"y x",
      "18.0":"y x",
      "19.0":"y x",
      "20":"y x",
      "21":"y x",
      "22":"y x"
    },
    "and_qq":{
      "13.1":"y x"
    },
    "baidu":{
      "13.18":"y x"
    },
    "kaios":{
      "2.5":"y",
      "3.0-3.1":"y"
    }
  },
  "notes":"Firefox and legacy Edge also support this property with the `-webkit-` prefix.",
  "notes_by_num":{
    
  },
  "usage_perc_y":96.82,
  "usage_perc_a":0,
  "ucprefix":false,
  "parent":"background-img-opts",
  "keywords":"background-clip,text,clip",
  "ie_id":"",
  "chrome_id":"",
  "firefox_id":"",
  "webkit_id":"",
  "shown":true
}
