{
  "title":"Synchronous Clipboard API",
  "description":"API to provide copy, cut and paste events as well as provide access to the OS clipboard.",
  "spec":"https://www.w3.org/TR/clipboard-apis/",
  "status":"wd",
  "links":[
    {
      "url":"https://developer.mozilla.org/en-US/docs/Web/API/ClipboardEvent",
      "title":"MDN Web Docs - ClipboardEvent"
    },
    {
      "url":"https://www.lucidchart.com/techblog/2014/12/02/definitive-guide-copying-pasting-javascript/",
      "title":"Guide on cross-platform clipboard access"
    }
  ],
  "bugs":[
    {
      "description":"Before Firefox 41, `queryCommandEnabled` and `execCommand` with arguments `cut`, `copy` or `paste` would throw errors instead of return `false`."
    }
  ],
  "categories":[
    "JS API"
  ],
  "stats":{
    "ie":{
      "5.5":"a #1 #2 #5",
      "6":"a #1 #2 #5",
      "7":"a #1 #2 #5",
      "8":"a #1 #2 #5",
      "9":"a #1 #2 #5",
      "10":"a #1 #2 #5",
      "11":"a #1 #2 #5"
    },
    "edge":{
      "12":"a #1 #2 #5",
      "13":"a #1 #2 #5",
      "14":"a #1 #2 #5",
      "15":"a #1 #2 #5",
      "16":"a #1 #2 #5",
      "17":"a #2",
      "18":"a #2",
      "79":"a #7",
      "80":"a #7",
      "81":"a #7",
      "83":"a #7",
      "84":"a #7",
      "85":"a #7",
      "86":"a #7",
      "87":"a #7",
      "88":"a #7",
      "89":"a #7",
      "90":"a #7",
      "91":"a #7",
      "92":"a #7",
      "93":"a #7",
      "94":"a #7",
      "95":"a #7",
      "96":"a #7",
      "97":"a #7",
      "98":"a #7",
      "99":"a #7",
      "100":"a #7",
      "101":"a #7",
      "102":"a #7",
      "103":"a #7",
      "104":"a #7",
      "105":"a #7",
      "106":"a #7",
      "107":"a #7",
      "108":"a #7",
      "109":"a #7",
      "110":"a #7",
      "111":"a #7",
      "112":"a #7",
      "113":"a #7",
      "114":"a #7",
      "115":"a #7",
      "116":"a #7",
      "117":"a #7",
      "118":"a #7"
    },
    "firefox":{
      "2":"n",
      "3":"n",
      "3.5":"n",
      "3.6":"n",
      "4":"n",
      "5":"n",
      "6":"n",
      "7":"n",
      "8":"n",
      "9":"n",
      "10":"n",
      "11":"n",
      "12":"n",
      "13":"n",
      "14":"n",
      "15":"n",
      "16":"n",
      "17":"n",
      "18":"n",
      "19":"n",
      "20":"n",
      "21":"n",
      "22":"a #2 #3",
      "23":"a #2 #3",
      "24":"a #2 #3",
      "25":"a #2 #3",
      "26":"a #2 #3",
      "27":"a #2 #3",
      "28":"a #2 #3",
      "29":"a #2 #3",
      "30":"a #2 #3",
      "31":"a #2 #3",
      "32":"a #2 #3",
      "33":"a #2 #3",
      "34":"a #2 #3",
      "35":"a #2 #3",
      "36":"a #2 #3",
      "37":"a #2 #3",
      "38":"a #2 #3",
      "39":"a #2 #3",
      "40":"a #2 #3",
      "41":"a #6",
      "42":"a #6",
      "43":"a #6",
      "44":"a #6",
      "45":"a #6",
      "46":"a #6",
      "47":"a #6",
      "48":"a #6",
      "49":"a #6",
      "50":"a #6",
      "51":"a #6",
      "52":"a #6",
      "53":"a #6",
      "54":"a #6",
      "55":"a #6",
      "56":"a #6",
      "57":"a #6",
      "58":"a #6",
      "59":"a #6",
      "60":"a #6",
      "61":"a #6",
      "62":"a #6",
      "63":"a #6",
      "64":"a #6",
      "65":"a #6",
      "66":"a #6",
      "67":"a #6",
      "68":"a #6",
      "69":"a #6",
      "70":"a #6",
      "71":"a #6",
      "72":"a #6",
      "73":"a #6",
      "74":"a #6",
      "75":"a #6",
      "76":"a #6",
      "77":"a #6",
      "78":"a #6",
      "79":"a #6",
      "80":"a #6",
      "81":"a #6",
      "82":"a #6",
      "83":"a #6",
      "84":"a #6",
      "85":"a #6",
      "86":"a #6",
      "87":"a #6",
      "88":"a #6",
      "89":"a #6",
      "90":"a #6",
      "91":"a #6",
      "92":"a #6",
      "93":"a #6",
      "94":"a #6",
      "95":"a #6",
      "96":"a #6",
      "97":"a #6",
      "98":"a #6",
      "99":"a #6",
      "100":"a #6",
      "101":"a #6",
      "102":"a #6",
      "103":"a #6",
      "104":"a #6",
      "105":"a #6",
      "106":"a #6",
      "107":"a #6",
      "108":"a #6",
      "109":"a #6",
      "110":"a #6",
      "111":"a #6",
      "112":"a #6",
      "113":"a #6",
      "114":"a #6",
      "115":"a #6",
      "116":"a #6",
      "117":"a #6",
      "118":"a #6",
      "119":"a #6",
      "120":"a #6",
      "121":"a #6"
    },
    "chrome":{
      "4":"n",
      "5":"n",
      "6":"n",
      "7":"n",
      "8":"n",
      "9":"n",
      "10":"n",
      "11":"n",
      "12":"n",
      "13":"a #3 #5",
      "14":"a #3 #5",
      "15":"a #3 #5",
      "16":"a #3 #5",
      "17":"a #3 #5",
      "18":"a #3 #5",
      "19":"a #3 #5",
      "20":"a #3 #5",
      "21":"a #3 #5",
      "22":"a #3 #5",
      "23":"a #3 #5",
      "24":"a #3 #5",
      "25":"a #3 #5",
      "26":"a #3 #5",
      "27":"a #3 #5",
      "28":"a #3 #5",
      "29":"a #3 #5",
      "30":"a #3 #5",
      "31":"a #3 #5",
      "32":"a #3 #5",
      "33":"a #3 #5",
      "34":"a #3 #5",
      "35":"a #3 #5",
      "36":"a #3 #5",
      "37":"a #3 #5",
      "38":"a #3 #5",
      "39":"a #3 #5",
      "40":"a #3 #5",
      "41":"a #3 #5",
      "42":"a #3 #5",
      "43":"a #5 #7",
      "44":"a #5 #7",
      "45":"a #5 #7",
      "46":"a #5 #7",
      "47":"a #5 #7",
      "48":"a #5 #7",
      "49":"a #5 #7",
      "50":"a #5 #7",
      "51":"a #5 #7",
      "52":"a #5 #7",
      "53":"a #5 #7",
      "54":"a #5 #7",
      "55":"a #5 #7",
      "56":"a #5 #7",
      "57":"a #5 #7",
      "58":"a #7",
      "59":"a #7",
      "60":"a #7",
      "61":"a #7",
      "62":"a #7",
      "63":"a #7",
      "64":"a #7",
      "65":"a #7",
      "66":"a #7",
      "67":"a #7",
      "68":"a #7",
      "69":"a #7",
      "70":"a #7",
      "71":"a #7",
      "72":"a #7",
      "73":"a #7",
      "74":"a #7",
      "75":"a #7",
      "76":"a #7",
      "77":"a #7",
      "78":"a #7",
      "79":"a #7",
      "80":"a #7",
      "81":"a #7",
      "83":"a #7",
      "84":"a #7",
      "85":"a #7",
      "86":"a #7",
      "87":"a #7",
      "88":"a #7",
      "89":"a #7",
      "90":"a #7",
      "91":"a #7",
      "92":"a #7",
      "93":"a #7",
      "94":"a #7",
      "95":"a #7",
      "96":"a #7",
      "97":"a #7",
      "98":"a #7",
      "99":"a #7",
      "100":"a #7",
      "101":"a #7",
      "102":"a #7",
      "103":"a #7",
      "104":"a #7",
      "105":"a #7",
      "106":"a #7",
      "107":"a #7",
      "108":"a #7",
      "109":"a #7",
      "110":"a #7",
      "111":"a #7",
      "112":"a #7",
      "113":"a #7",
      "114":"a #7",
      "115":"a #7",
      "116":"a #7",
      "117":"a #7",
      "118":"a #7",
      "119":"a #7",
      "120":"a #7",
      "121":"a #7"
    },
    "safari":{
      "3.1":"u",
      "3.2":"u",
      "4":"a #2 #3 #5",
      "5":"a #2 #3 #5",
      "5.1":"a #2 #3 #5",
      "6":"a #2 #3 #5",
      "6.1":"a #2 #3 #5",
      "7":"a #2 #3 #5",
      "7.1":"a #2 #3 #5",
      "8":"a #2 #3 #5",
      "9":"a #2 #3 #5",
      "9.1":"a #2 #3 #5",
      "10":"a #2 #5",
      "10.1":"a #2 #5",
      "11":"a #2 #5",
      "11.1":"a #2 #5",
      "12":"y",
      "12.1":"y",
      "13":"y",
      "13.1":"y",
      "14":"y",
      "14.1":"y",
      "15":"y",
      "15.1":"y",
      "15.2-15.3":"y",
      "15.4":"y",
      "15.5":"y",
      "15.6":"y",
      "16.0":"y",
      "16.1":"y",
      "16.2":"y",
      "16.3":"y",
      "16.4":"y",
      "16.5":"y",
      "16.6":"y",
      "17.0":"y",
      "17.1":"y",
      "TP":"y"
    },
    "opera":{
      "9":"n",
      "9.5-9.6":"n",
      "10.0-10.1":"n",
      "10.5":"n",
      "10.6":"n",
      "11":"n",
      "11.1":"n",
      "11.5":"n",
      "11.6":"n",
      "12":"u",
      "12.1":"a #3",
      "15":"a #3 #5",
      "16":"a #3 #5",
      "17":"a #3 #5",
      "18":"a #3 #5",
      "19":"a #3 #5",
      "20":"a #3 #5",
      "21":"a #3 #5",
      "22":"a #3 #5",
      "23":"a #3 #5",
      "24":"a #3 #5",
      "25":"a #3 #5",
      "26":"a #3 #5",
      "27":"a #3 #5",
      "28":"a #3 #5",
      "29":"a #3 #5",
      "30":"a #5 #7",
      "31":"a #5 #7",
      "32":"a #5 #7",
      "33":"a #5 #7",
      "34":"a #5 #7",
      "35":"a #5 #7",
      "36":"a #5 #7",
      "37":"a #5 #7",
      "38":"a #5 #7",
      "39":"a #5 #7",
      "40":"a #5 #7",
      "41":"a #5 #7",
      "42":"a #5 #7",
      "43":"a #5 #7",
      "44":"a #5 #7",
      "45":"a #7",
      "46":"a #7",
      "47":"a #7",
      "48":"a #7",
      "49":"a #7",
      "50":"a #7",
      "51":"a #7",
      "52":"a #7",
      "53":"a #7",
      "54":"a #7",
      "55":"a #7",
      "56":"a #7",
      "57":"a #7",
      "58":"a #7",
      "60":"a #7",
      "62":"a #7",
      "63":"a #7",
      "64":"a #7",
      "65":"a #7",
      "66":"a #7",
      "67":"a #7",
      "68":"a #7",
      "69":"a #7",
      "70":"a #7",
      "71":"a #7",
      "72":"a #7",
      "73":"a #7",
      "74":"a #7",
      "75":"a #7",
      "76":"a #7",
      "77":"a #7",
      "78":"a #7",
      "79":"a #7",
      "80":"a #7",
      "81":"a #7",
      "82":"a #7",
      "83":"a #7",
      "84":"a #7",
      "85":"a #7",
      "86":"a #7",
      "87":"a #7",
      "88":"a #7",
      "89":"a #7",
      "90":"a #7",
      "91":"a #7",
      "92":"a #7",
      "93":"a #7",
      "94":"a #7",
      "95":"a #7",
      "96":"a #7",
      "97":"a #7",
      "98":"a #7",
      "99":"a #7",
      "100":"a #7",
      "101":"a #7",
      "102":"a #7",
      "103":"a #7"
    },
    "ios_saf":{
      "3.2":"n",
      "4.0-4.1":"n",
      "4.2-4.3":"n",
      "5.0-5.1":"a #2 #3 #5",
      "6.0-6.1":"a #2 #3 #5",
      "7.0-7.1":"a #2 #3 #5",
      "8":"a #2 #3 #5",
      "8.1-8.4":"a #2 #3 #5",
      "9.0-9.2":"a #2 #3 #5",
      "9.3":"a #2 #3 #5",
      "10.0-10.2":"a #2 #3 #5",
      "10.3":"a #2 #3 #5",
      "11.0-11.2":"a #2 #3 #5",
      "11.3-11.4":"a #2 #3 #5",
      "12.0-12.1":"y",
      "12.2-12.5":"y",
      "13.0-13.1":"y",
      "13.2":"y",
      "13.3":"y",
      "13.4-13.7":"y",
      "14.0-14.4":"y",
      "14.5-14.8":"y",
      "15.0-15.1":"y",
      "15.2-15.3":"y",
      "15.4":"y",
      "15.5":"y",
      "15.6-15.7":"y",
      "16.0":"y",
      "16.1":"y",
      "16.2":"y",
      "16.3":"y",
      "16.4":"y",
      "16.5":"y",
      "16.6":"y",
      "17.0":"y",
      "17.1":"y"
    },
    "op_mini":{
      "all":"n"
    },
    "android":{
      "2.1":"n",
      "2.2":"n",
      "2.3":"n",
      "3":"n",
      "4":"n",
      "4.1":"n",
      "4.2-4.3":"n",
      "4.4":"a #2 #5",
      "4.4.3-4.4.4":"a #2 #5",
      "118":"a #2"
    },
    "bb":{
      "7":"n",
      "10":"a #2 #5"
    },
    "op_mob":{
      "10":"n",
      "11":"n",
      "11.1":"n",
      "11.5":"n",
      "12":"n",
      "12.1":"u",
      "73":"a #7"
    },
    "and_chr":{
      "118":"a #7"
    },
    "and_ff":{
      "118":"a #4"
    },
    "ie_mob":{
      "10":"n",
      "11":"n"
    },
    "and_uc":{
      "15.5":"a #7"
    },
    "samsung":{
      "4":"a #2 #5",
      "5.0-5.4":"a #5",
      "6.2-6.4":"a #5",
      "7.2-7.4":"a #7",
      "8.2":"a #7",
      "9.2":"a #7",
      "10.1":"a #7",
      "11.1-11.2":"a #7",
      "12.0":"a #7",
      "13.0":"a #7",
      "14.0":"a #7",
      "15.0":"a #7",
      "16.0":"a #7",
      "17.0":"a #7",
      "18.0":"a #7",
      "19.0":"a #7",
      "20":"a #7",
      "21":"a #7",
      "22":"a #7"
    },
    "and_qq":{
      "13.1":"a #7"
    },
    "baidu":{
      "13.18":"a #7"
    },
    "kaios":{
      "2.5":"a #6",
      "3.0-3.1":"a #6"
    }
  },
  "notes":"Internet Explorer will display a security prompt for access to the OS clipboard.\r\n\r\nChrome 42+, Opera 29+ and Firefox 41+ support clipboard reading/writing only when part of a user action (click, keydown, etc).",
  "notes_by_num":{
    "1":"Only supports `Text` and `URL` data types and uses [a non-standard method](https://msdn.microsoft.com/en-us/library/ie/ms535220%28v=vs.85%29.aspx) of interacting with the clipboard.",
    "2":"Only fires `copy` event on a valid selection and only `cut` and `paste` in focused editable fields.",
    "3":"Only supports OS clipboard reading/writing via shortcut keys, not through `document.execCommand()`.",
    "4":"Only supports `paste` event (on focused editable field).",
    "5":"Does not support the `ClipboardEvent` constructor",
    "6":"Supports `cut` & `copy` events without a focused editable field, but not `paste` (presumably for security reasons)",
    "7":"Supports `cut` & `copy` events without a focused editable field, but does not fire `paste` with `document.execCommand('paste')`  "
  },
  "usage_perc_y":19.26,
  "usage_perc_a":77.99,
  "ucprefix":false,
  "parent":"",
  "keywords":"cut,copy,paste,clipboarddata,clipboardevent",
  "ie_id":"clipboardapi",
  "chrome_id":"",
  "firefox_id":"",
  "webkit_id":"",
  "shown":true
}
