{
  "title":"createImageBitmap",
  "description":"Create image bitmap with support for resizing and adjusting quality",
  "spec":"https://html.spec.whatwg.org/multipage/imagebitmap-and-animations.html#dom-createimagebitmap",
  "status":"ls",
  "links":[
    {
      "url":"https://developer.mozilla.org/en-US/docs/Web/API/WindowOrWorkerGlobalScope/createImageBitmap",
      "title":"self.createImageBitmap() - Web APIs | MDN"
    }
  ],
  "bugs":[
    
  ],
  "categories":[
    "JS API"
  ],
  "stats":{
    "ie":{
      "5.5":"n",
      "6":"n",
      "7":"n",
      "8":"n",
      "9":"n",
      "10":"n",
      "11":"n"
    },
    "edge":{
      "12":"n",
      "13":"n",
      "14":"n",
      "15":"n",
      "16":"n",
      "17":"n",
      "18":"n",
      "79":"y",
      "80":"y",
      "81":"y",
      "83":"y",
      "84":"y",
      "85":"y",
      "86":"y",
      "87":"y",
      "88":"y",
      "89":"y",
      "90":"y",
      "91":"y",
      "92":"y",
      "93":"y",
      "94":"y",
      "95":"y",
      "96":"y",
      "97":"y",
      "98":"y",
      "99":"y",
      "100":"y",
      "101":"y",
      "102":"y",
      "103":"y",
      "104":"y",
      "105":"y",
      "106":"y",
      "107":"y",
      "108":"y",
      "109":"y",
      "110":"y",
      "111":"y",
      "112":"y",
      "113":"y",
      "114":"y",
      "115":"y",
      "116":"y",
      "117":"y",
      "118":"y"
    },
    "firefox":{
      "2":"n",
      "3":"n",
      "3.5":"n",
      "3.6":"n",
      "4":"n",
      "5":"n",
      "6":"n",
      "7":"n",
      "8":"n",
      "9":"n",
      "10":"n",
      "11":"n",
      "12":"n",
      "13":"n",
      "14":"n",
      "15":"n",
      "16":"n",
      "17":"n",
      "18":"n",
      "19":"n",
      "20":"n",
      "21":"n",
      "22":"n",
      "23":"n",
      "24":"n",
      "25":"n",
      "26":"n",
      "27":"n",
      "28":"n",
      "29":"n",
      "30":"n",
      "31":"n",
      "32":"n",
      "33":"n",
      "34":"n",
      "35":"n",
      "36":"n",
      "37":"n",
      "38":"n",
      "39":"n",
      "40":"n",
      "41":"n",
      "42":"a #4 #5",
      "43":"a #4 #5",
      "44":"a #4 #5",
      "45":"a #4 #5",
      "46":"a #4 #5",
      "47":"a #4 #5",
      "48":"a #4 #5",
      "49":"a #4 #5",
      "50":"a #4 #5",
      "51":"a #4 #5",
      "52":"a #4 #5",
      "53":"a #4 #5",
      "54":"a #4 #5",
      "55":"a #4 #5",
      "56":"a #4 #5",
      "57":"a #4 #5",
      "58":"a #4 #5",
      "59":"a #4 #5",
      "60":"a #4 #5",
      "61":"a #4 #5",
      "62":"a #4 #5",
      "63":"a #4 #5",
      "64":"a #4 #5",
      "65":"a #4 #5",
      "66":"a #4 #5",
      "67":"a #4 #5",
      "68":"a #4 #5",
      "69":"a #4 #5",
      "70":"a #4 #5",
      "71":"a #4 #5",
      "72":"a #4 #5",
      "73":"a #4 #5",
      "74":"a #4 #5",
      "75":"a #4 #5",
      "76":"a #4 #5",
      "77":"a #4 #5",
      "78":"a #4 #5",
      "79":"a #4 #5",
      "80":"a #4 #5",
      "81":"a #4 #5",
      "82":"a #4 #5",
      "83":"a #4 #5",
      "84":"a #4 #5",
      "85":"a #4 #5",
      "86":"a #4 #5",
      "87":"a #4 #5",
      "88":"a #4 #5",
      "89":"a #4 #5",
      "90":"a #4 #5",
      "91":"a #4 #5",
      "92":"a #4 #5",
      "93":"a #4",
      "94":"a #4",
      "95":"a #4",
      "96":"a #4",
      "97":"a #4",
      "98":"a #7",
      "99":"a #7",
      "100":"a #7",
      "101":"a #7",
      "102":"a #7",
      "103":"a #7",
      "104":"a #7",
      "105":"a #7",
      "106":"a #7",
      "107":"a #7",
      "108":"a #7",
      "109":"a #7",
      "110":"a #7",
      "111":"a #7",
      "112":"a #7",
      "113":"a #7",
      "114":"a #7",
      "115":"a #7",
      "116":"a #7",
      "117":"a #7",
      "118":"a #7",
      "119":"a #7",
      "120":"a #7",
      "121":"a #7"
    },
    "chrome":{
      "4":"n",
      "5":"n",
      "6":"n",
      "7":"n",
      "8":"n",
      "9":"n",
      "10":"n",
      "11":"n",
      "12":"n",
      "13":"n",
      "14":"n",
      "15":"n",
      "16":"n",
      "17":"n",
      "18":"n",
      "19":"n",
      "20":"n",
      "21":"n",
      "22":"n",
      "23":"n",
      "24":"n",
      "25":"n",
      "26":"n",
      "27":"n",
      "28":"n",
      "29":"n",
      "30":"n",
      "31":"n",
      "32":"n",
      "33":"n",
      "34":"n",
      "35":"n",
      "36":"n",
      "37":"n",
      "38":"n",
      "39":"n",
      "40":"n",
      "41":"n",
      "42":"n",
      "43":"n",
      "44":"n",
      "45":"n",
      "46":"n",
      "47":"n",
      "48":"n",
      "49":"n",
      "50":"a #1",
      "51":"a #1",
      "52":"a #2",
      "53":"a #2",
      "54":"a #3",
      "55":"a #3",
      "56":"a #3",
      "57":"a #3",
      "58":"a #3",
      "59":"y",
      "60":"y",
      "61":"y",
      "62":"y",
      "63":"y",
      "64":"y",
      "65":"y",
      "66":"y",
      "67":"y",
      "68":"y",
      "69":"y",
      "70":"y",
      "71":"y",
      "72":"y",
      "73":"y",
      "74":"y",
      "75":"y",
      "76":"y",
      "77":"y",
      "78":"y",
      "79":"y",
      "80":"y",
      "81":"y",
      "83":"y",
      "84":"y",
      "85":"y",
      "86":"y",
      "87":"y",
      "88":"y",
      "89":"y",
      "90":"y",
      "91":"y",
      "92":"y",
      "93":"y",
      "94":"y",
      "95":"y",
      "96":"y",
      "97":"y",
      "98":"y",
      "99":"y",
      "100":"y",
      "101":"y",
      "102":"y",
      "103":"y",
      "104":"y",
      "105":"y",
      "106":"y",
      "107":"y",
      "108":"y",
      "109":"y",
      "110":"y",
      "111":"y",
      "112":"y",
      "113":"y",
      "114":"y",
      "115":"y",
      "116":"y",
      "117":"y",
      "118":"y",
      "119":"y",
      "120":"y",
      "121":"y"
    },
    "safari":{
      "3.1":"n",
      "3.2":"n",
      "4":"n",
      "5":"n",
      "5.1":"n",
      "6":"n",
      "6.1":"n",
      "7":"n",
      "7.1":"n",
      "8":"n",
      "9":"n",
      "9.1":"n",
      "10":"n",
      "10.1":"n",
      "11":"n",
      "11.1":"n",
      "12":"n",
      "12.1":"n",
      "13":"n",
      "13.1":"n",
      "14":"n",
      "14.1":"n",
      "15":"a #6",
      "15.1":"a #6",
      "15.2-15.3":"a #6",
      "15.4":"a #6",
      "15.5":"a #6",
      "15.6":"a #6",
      "16.0":"a #6",
      "16.1":"a #6",
      "16.2":"a #6",
      "16.3":"a #6",
      "16.4":"a #6",
      "16.5":"a #6",
      "16.6":"a #6",
      "17.0":"a #6",
      "17.1":"a #6",
      "TP":"a #6"
    },
    "opera":{
      "9":"n",
      "9.5-9.6":"n",
      "10.0-10.1":"n",
      "10.5":"n",
      "10.6":"n",
      "11":"n",
      "11.1":"n",
      "11.5":"n",
      "11.6":"n",
      "12":"n",
      "12.1":"n",
      "15":"n",
      "16":"n",
      "17":"n",
      "18":"n",
      "19":"n",
      "20":"n",
      "21":"n",
      "22":"n",
      "23":"n",
      "24":"n",
      "25":"n",
      "26":"n",
      "27":"n",
      "28":"n",
      "29":"n",
      "30":"n",
      "31":"n",
      "32":"n",
      "33":"n",
      "34":"n",
      "35":"n",
      "36":"n",
      "37":"a #1",
      "38":"a #1",
      "39":"a #2",
      "40":"a #2",
      "41":"a #3",
      "42":"a #3",
      "43":"a #3",
      "44":"a #3",
      "45":"a #3",
      "46":"y",
      "47":"y",
      "48":"y",
      "49":"y",
      "50":"y",
      "51":"y",
      "52":"y",
      "53":"y",
      "54":"y",
      "55":"y",
      "56":"y",
      "57":"y",
      "58":"y",
      "60":"y",
      "62":"y",
      "63":"y",
      "64":"y",
      "65":"y",
      "66":"y",
      "67":"y",
      "68":"y",
      "69":"y",
      "70":"y",
      "71":"y",
      "72":"y",
      "73":"y",
      "74":"y",
      "75":"y",
      "76":"y",
      "77":"y",
      "78":"y",
      "79":"y",
      "80":"y",
      "81":"y",
      "82":"y",
      "83":"y",
      "84":"y",
      "85":"y",
      "86":"y",
      "87":"y",
      "88":"y",
      "89":"y",
      "90":"y",
      "91":"y",
      "92":"y",
      "93":"y",
      "94":"y",
      "95":"y",
      "96":"y",
      "97":"y",
      "98":"y",
      "99":"y",
      "100":"y",
      "101":"y",
      "102":"y",
      "103":"y"
    },
    "ios_saf":{
      "3.2":"n",
      "4.0-4.1":"n",
      "4.2-4.3":"n",
      "5.0-5.1":"n",
      "6.0-6.1":"n",
      "7.0-7.1":"n",
      "8":"n",
      "8.1-8.4":"n",
      "9.0-9.2":"n",
      "9.3":"n",
      "10.0-10.2":"n",
      "10.3":"n",
      "11.0-11.2":"n",
      "11.3-11.4":"n",
      "12.0-12.1":"n",
      "12.2-12.5":"n",
      "13.0-13.1":"n",
      "13.2":"n",
      "13.3":"n",
      "13.4-13.7":"n",
      "14.0-14.4":"n",
      "14.5-14.8":"n",
      "15.0-15.1":"a #6",
      "15.2-15.3":"a #6",
      "15.4":"a #6",
      "15.5":"a #6",
      "15.6-15.7":"a #6",
      "16.0":"a #6",
      "16.1":"a #6",
      "16.2":"a #6",
      "16.3":"a #6",
      "16.4":"a #6",
      "16.5":"a #6",
      "16.6":"a #6",
      "17.0":"a #6",
      "17.1":"a #6"
    },
    "op_mini":{
      "all":"n"
    },
    "android":{
      "2.1":"n",
      "2.2":"n",
      "2.3":"n",
      "3":"n",
      "4":"n",
      "4.1":"n",
      "4.2-4.3":"n",
      "4.4":"n",
      "4.4.3-4.4.4":"n",
      "118":"y"
    },
    "bb":{
      "7":"n",
      "10":"n"
    },
    "op_mob":{
      "10":"n",
      "11":"n",
      "11.1":"n",
      "11.5":"n",
      "12":"n",
      "12.1":"n",
      "73":"y"
    },
    "and_chr":{
      "118":"y"
    },
    "and_ff":{
      "118":"a #7"
    },
    "ie_mob":{
      "10":"n",
      "11":"n"
    },
    "and_uc":{
      "15.5":"y"
    },
    "samsung":{
      "4":"u",
      "5.0-5.4":"u",
      "6.2-6.4":"y",
      "7.2-7.4":"y",
      "8.2":"y",
      "9.2":"y",
      "10.1":"y",
      "11.1-11.2":"y",
      "12.0":"y",
      "13.0":"y",
      "14.0":"y",
      "15.0":"y",
      "16.0":"y",
      "17.0":"y",
      "18.0":"y",
      "19.0":"y",
      "20":"y",
      "21":"y",
      "22":"y"
    },
    "and_qq":{
      "13.1":"y"
    },
    "baidu":{
      "13.18":"y"
    },
    "kaios":{
      "2.5":"a #4 #5",
      "3.0-3.1":"a #4 #5"
    }
  },
  "notes":"",
  "notes_by_num":{
    "1":"No support for options parameter, resizeWidth, resizeHeight, resizeQuality or SVGImageElement as Source Image",
    "2":"No support for resizeWidth, resizeHeight, resizeQuality or SVGImageElement as Source Image",
    "3":"No support for SVGImageElement as Source Image",
    "4":"No support for resizeWidth, resizeHeight and resizeQuality. See [this bug](https://bugzilla.mozilla.org/show_bug.cgi?id=1363861)",
    "5":"No support for `createImageBitmap(source, options)` interface. See [this bug](https://bugzilla.mozilla.org/show_bug.cgi?id=1335594)",
    "6":"Partial implementation. See [this bug](https://bugs.webkit.org/show_bug.cgi?id=182424)",
    "7":"No support for resizeQuality. See [this bug](https://bugzilla.mozilla.org/show_bug.cgi?id=1363861)"
  },
  "usage_perc_y":73.65,
  "usage_perc_a":20.96,
  "ucprefix":false,
  "parent":"",
  "keywords":"",
  "ie_id":"",
  "chrome_id":"",
  "firefox_id":"",
  "webkit_id":"",
  "shown":true
}
