{
  "title":"CSS Cross-Fade Function",
  "description":"Image function to create a \"crossfade\" between images. This allows one image to transition (fade) into another based on a percentage value.",
  "spec":"https://w3c.github.io/csswg-drafts/css-images-4/#cross-fade-function",
  "status":"cr",
  "links":[
    {
      "url":"https://bugzilla.mozilla.org/show_bug.cgi?id=546052",
      "title":"Firefox bug #546052: Implement cross-fade()"
    },
    {
      "url":"https://developer.mozilla.org/en-US/docs/Web/CSS/cross-fade()",
      "title":"MDN Web Docs - CSS cross-fade()"
    },
    {
      "url":"https://bugs.chromium.org/p/chromium/issues/detail?id=614906",
      "title":"Chromium bug to unprefix `-webkit-cross-fade()`"
    }
  ],
  "bugs":[
    
  ],
  "categories":[
    "CSS"
  ],
  "stats":{
    "ie":{
      "5.5":"n",
      "6":"n",
      "7":"n",
      "8":"n",
      "9":"n",
      "10":"n",
      "11":"n"
    },
    "edge":{
      "12":"n",
      "13":"n",
      "14":"n",
      "15":"n",
      "16":"n",
      "17":"n",
      "18":"n",
      "79":"y x",
      "80":"y x",
      "81":"y x",
      "83":"y x",
      "84":"y x",
      "85":"y x",
      "86":"y x",
      "87":"y x",
      "88":"y x",
      "89":"y x",
      "90":"y x",
      "91":"y x",
      "92":"y x",
      "93":"y x",
      "94":"y x",
      "95":"y x",
      "96":"y x",
      "97":"y x",
      "98":"y x",
      "99":"y x",
      "100":"y x",
      "101":"y x",
      "102":"y x",
      "103":"y x",
      "104":"y x",
      "105":"y x",
      "106":"y x",
      "107":"y x",
      "108":"y x",
      "109":"y x",
      "110":"y x",
      "111":"y x",
      "112":"y x",
      "113":"y x",
      "114":"y x",
      "115":"y x",
      "116":"y x",
      "117":"y x",
      "118":"y x"
    },
    "firefox":{
      "2":"n",
      "3":"n",
      "3.5":"n",
      "3.6":"n",
      "4":"n",
      "5":"n",
      "6":"n",
      "7":"n",
      "8":"n",
      "9":"n",
      "10":"n",
      "11":"n",
      "12":"n",
      "13":"n",
      "14":"n",
      "15":"n",
      "16":"n",
      "17":"n",
      "18":"n",
      "19":"n",
      "20":"n",
      "21":"n",
      "22":"n",
      "23":"n",
      "24":"n",
      "25":"n",
      "26":"n",
      "27":"n",
      "28":"n",
      "29":"n",
      "30":"n",
      "31":"n",
      "32":"n",
      "33":"n",
      "34":"n",
      "35":"n",
      "36":"n",
      "37":"n",
      "38":"n",
      "39":"n",
      "40":"n",
      "41":"n",
      "42":"n",
      "43":"n",
      "44":"n",
      "45":"n",
      "46":"n",
      "47":"n",
      "48":"n",
      "49":"n",
      "50":"n",
      "51":"n",
      "52":"n",
      "53":"n",
      "54":"n",
      "55":"n",
      "56":"n",
      "57":"n",
      "58":"n",
      "59":"n",
      "60":"n",
      "61":"n",
      "62":"n",
      "63":"n",
      "64":"n",
      "65":"n",
      "66":"n",
      "67":"n",
      "68":"n",
      "69":"n",
      "70":"n",
      "71":"n",
      "72":"n",
      "73":"n",
      "74":"n",
      "75":"n",
      "76":"n",
      "77":"n",
      "78":"n",
      "79":"n",
      "80":"n",
      "81":"n",
      "82":"n",
      "83":"n",
      "84":"n",
      "85":"n",
      "86":"n",
      "87":"n",
      "88":"n",
      "89":"n",
      "90":"n",
      "91":"n",
      "92":"n",
      "93":"n",
      "94":"n",
      "95":"n",
      "96":"n",
      "97":"n",
      "98":"n",
      "99":"n",
      "100":"n",
      "101":"n",
      "102":"n",
      "103":"n",
      "104":"n",
      "105":"n",
      "106":"n",
      "107":"n",
      "108":"n",
      "109":"n",
      "110":"n",
      "111":"n",
      "112":"n",
      "113":"n",
      "114":"n",
      "115":"n",
      "116":"n",
      "117":"n",
      "118":"n",
      "119":"n",
      "120":"n",
      "121":"n"
    },
    "chrome":{
      "4":"n",
      "5":"n",
      "6":"n",
      "7":"n",
      "8":"n",
      "9":"n",
      "10":"n",
      "11":"n",
      "12":"n",
      "13":"n",
      "14":"n",
      "15":"n",
      "16":"n",
      "17":"y x",
      "18":"y x",
      "19":"y x",
      "20":"y x",
      "21":"y x",
      "22":"y x",
      "23":"y x",
      "24":"y x",
      "25":"y x",
      "26":"y x",
      "27":"y x",
      "28":"y x",
      "29":"y x",
      "30":"y x",
      "31":"y x",
      "32":"y x",
      "33":"y x",
      "34":"y x",
      "35":"y x",
      "36":"y x",
      "37":"y x",
      "38":"y x",
      "39":"y x",
      "40":"y x",
      "41":"y x",
      "42":"y x",
      "43":"y x",
      "44":"y x",
      "45":"y x",
      "46":"y x",
      "47":"y x",
      "48":"y x",
      "49":"y x",
      "50":"y x",
      "51":"y x",
      "52":"y x",
      "53":"y x",
      "54":"y x",
      "55":"y x",
      "56":"y x",
      "57":"y x",
      "58":"y x",
      "59":"y x",
      "60":"y x",
      "61":"y x",
      "62":"y x",
      "63":"y x",
      "64":"y x",
      "65":"y x",
      "66":"y x",
      "67":"y x",
      "68":"y x",
      "69":"y x",
      "70":"y x",
      "71":"y x",
      "72":"y x",
      "73":"y x",
      "74":"y x",
      "75":"y x",
      "76":"y x",
      "77":"y x",
      "78":"y x",
      "79":"y x",
      "80":"y x",
      "81":"y x",
      "83":"y x",
      "84":"y x",
      "85":"y x",
      "86":"y x",
      "87":"y x",
      "88":"y x",
      "89":"y x",
      "90":"y x",
      "91":"y x",
      "92":"y x",
      "93":"y x",
      "94":"y x",
      "95":"y x",
      "96":"y x",
      "97":"y x",
      "98":"y x",
      "99":"y x",
      "100":"y x",
      "101":"y x",
      "102":"y x",
      "103":"y x",
      "104":"y x",
      "105":"y x",
      "106":"y x",
      "107":"y x",
      "108":"y x",
      "109":"y x",
      "110":"y x",
      "111":"y x",
      "112":"y x",
      "113":"y x",
      "114":"y x",
      "115":"y x",
      "116":"y x",
      "117":"y x",
      "118":"y x",
      "119":"y x",
      "120":"y x",
      "121":"y x"
    },
    "safari":{
      "3.1":"n",
      "3.2":"n",
      "4":"n",
      "5":"n",
      "5.1":"y x",
      "6":"y x",
      "6.1":"y x",
      "7":"y x",
      "7.1":"y x",
      "8":"y x",
      "9":"y x",
      "9.1":"y x",
      "10":"y",
      "10.1":"y",
      "11":"y",
      "11.1":"y",
      "12":"y",
      "12.1":"y",
      "13":"y",
      "13.1":"y",
      "14":"y",
      "14.1":"y",
      "15":"y",
      "15.1":"y",
      "15.2-15.3":"y",
      "15.4":"y",
      "15.5":"y",
      "15.6":"y",
      "16.0":"y",
      "16.1":"y",
      "16.2":"y",
      "16.3":"y",
      "16.4":"y",
      "16.5":"y",
      "16.6":"y",
      "17.0":"y",
      "17.1":"y",
      "TP":"y"
    },
    "opera":{
      "9":"n",
      "9.5-9.6":"n",
      "10.0-10.1":"n",
      "10.5":"n",
      "10.6":"n",
      "11":"n",
      "11.1":"n",
      "11.5":"n",
      "11.6":"n",
      "12":"n",
      "12.1":"n",
      "15":"y x",
      "16":"y x",
      "17":"y x",
      "18":"y x",
      "19":"y x",
      "20":"y x",
      "21":"y x",
      "22":"y x",
      "23":"y x",
      "24":"y x",
      "25":"y x",
      "26":"y x",
      "27":"y x",
      "28":"y x",
      "29":"y x",
      "30":"y x",
      "31":"y x",
      "32":"y x",
      "33":"y x",
      "34":"y x",
      "35":"y x",
      "36":"y x",
      "37":"y x",
      "38":"y x",
      "39":"y x",
      "40":"y x",
      "41":"y x",
      "42":"y x",
      "43":"y x",
      "44":"y x",
      "45":"y x",
      "46":"y x",
      "47":"y x",
      "48":"y x",
      "49":"y x",
      "50":"y x",
      "51":"y x",
      "52":"y x",
      "53":"y x",
      "54":"y x",
      "55":"y x",
      "56":"y x",
      "57":"y x",
      "58":"y x",
      "60":"y x",
      "62":"y x",
      "63":"y x",
      "64":"y x",
      "65":"y x",
      "66":"y x",
      "67":"y x",
      "68":"y x",
      "69":"y x",
      "70":"y x",
      "71":"y x",
      "72":"y x",
      "73":"y x",
      "74":"y x",
      "75":"y x",
      "76":"y x",
      "77":"y x",
      "78":"y x",
      "79":"y x",
      "80":"y x",
      "81":"y x",
      "82":"y x",
      "83":"y x",
      "84":"y x",
      "85":"y x",
      "86":"y x",
      "87":"y x",
      "88":"y x",
      "89":"y x",
      "90":"y x",
      "91":"y x",
      "92":"y x",
      "93":"y x",
      "94":"y x",
      "95":"y x",
      "96":"y x",
      "97":"y x",
      "98":"y x",
      "99":"y x",
      "100":"y x",
      "101":"y x",
      "102":"y x",
      "103":"y x"
    },
    "ios_saf":{
      "3.2":"n",
      "4.0-4.1":"n",
      "4.2-4.3":"n",
      "5.0-5.1":"y x",
      "6.0-6.1":"y x",
      "7.0-7.1":"y x",
      "8":"y x",
      "8.1-8.4":"y x",
      "9.0-9.2":"y x",
      "9.3":"y x",
      "10.0-10.2":"y",
      "10.3":"y",
      "11.0-11.2":"y",
      "11.3-11.4":"y",
      "12.0-12.1":"y",
      "12.2-12.5":"y",
      "13.0-13.1":"y",
      "13.2":"y",
      "13.3":"y",
      "13.4-13.7":"y",
      "14.0-14.4":"y",
      "14.5-14.8":"y",
      "15.0-15.1":"y",
      "15.2-15.3":"y",
      "15.4":"y",
      "15.5":"y",
      "15.6-15.7":"y",
      "16.0":"y",
      "16.1":"y",
      "16.2":"y",
      "16.3":"y",
      "16.4":"y",
      "16.5":"y",
      "16.6":"y",
      "17.0":"y",
      "17.1":"y"
    },
    "op_mini":{
      "all":"n"
    },
    "android":{
      "2.1":"n",
      "2.2":"n",
      "2.3":"n",
      "3":"n",
      "4":"n",
      "4.1":"n",
      "4.2-4.3":"n",
      "4.4":"y x",
      "4.4.3-4.4.4":"y x",
      "118":"y x"
    },
    "bb":{
      "7":"n",
      "10":"n"
    },
    "op_mob":{
      "10":"n",
      "11":"n",
      "11.1":"n",
      "11.5":"n",
      "12":"n",
      "12.1":"n",
      "73":"y x"
    },
    "and_chr":{
      "118":"y x"
    },
    "and_ff":{
      "118":"n"
    },
    "ie_mob":{
      "10":"n",
      "11":"n"
    },
    "and_uc":{
      "15.5":"y x"
    },
    "samsung":{
      "4":"y x",
      "5.0-5.4":"y x",
      "6.2-6.4":"y x",
      "7.2-7.4":"y x",
      "8.2":"y x",
      "9.2":"y x",
      "10.1":"y x",
      "11.1-11.2":"y x",
      "12.0":"y x",
      "13.0":"y x",
      "14.0":"y x",
      "15.0":"y x",
      "16.0":"y x",
      "17.0":"y x",
      "18.0":"y x",
      "19.0":"y x",
      "20":"y x",
      "21":"y x",
      "22":"y x"
    },
    "and_qq":{
      "13.1":"y x"
    },
    "baidu":{
      "13.18":"y x"
    },
    "kaios":{
      "2.5":"n",
      "3.0-3.1":"n"
    }
  },
  "notes":"",
  "notes_by_num":{
    
  },
  "usage_perc_y":93.78,
  "usage_perc_a":0,
  "ucprefix":false,
  "parent":"",
  "keywords":"css,image,crossfade",
  "ie_id":"",
  "chrome_id":"",
  "firefox_id":"",
  "webkit_id":"",
  "shown":true
}
