{
  "title":"CSS text-indent",
  "description":"The `text-indent` property applies indentation to lines of inline content in a block.",
  "spec":"https://w3c.github.io/csswg-drafts/css-text-3/#text-indent-property",
  "status":"cr",
  "links":[
    {
      "url":"https://developer.mozilla.org/en-US/docs/Web/CSS/text-indent",
      "title":"MDN Web Docs - CSS text-indent"
    },
    {
      "url":"https://bugzilla.mozilla.org/show_bug.cgi?id=784648",
      "title":"Firefox support bug"
    },
    {
      "url":"https://bugs.webkit.org/show_bug.cgi?id=112755",
      "title":"WebKit support bug"
    },
    {
      "url":"https://www.sitepoint.com/css-image-replacement-text-indent-negative-margins-and-more/",
      "title":"Article on using text-indent for image replacement"
    }
  ],
  "bugs":[
    
  ],
  "categories":[
    "CSS"
  ],
  "stats":{
    "ie":{
      "5.5":"a #1",
      "6":"a #1",
      "7":"a #1",
      "8":"a #1",
      "9":"a #1",
      "10":"a #1",
      "11":"a #1"
    },
    "edge":{
      "12":"a #1",
      "13":"a #1",
      "14":"a #1",
      "15":"a #1",
      "16":"a #1",
      "17":"a #1",
      "18":"a #1",
      "79":"a #1 #2",
      "80":"a #1 #2",
      "81":"a #1 #2",
      "83":"a #1 #2",
      "84":"a #1 #2",
      "85":"a #1 #2",
      "86":"a #1 #2",
      "87":"a #1 #2",
      "88":"a #1 #2",
      "89":"a #1 #2",
      "90":"a #1 #2",
      "91":"a #1 #2",
      "92":"a #1 #2",
      "93":"a #1 #2",
      "94":"a #1 #2",
      "95":"a #1 #2",
      "96":"a #1 #2",
      "97":"a #1 #2",
      "98":"a #1 #2",
      "99":"a #1 #2",
      "100":"a #1 #2",
      "101":"a #1 #2",
      "102":"a #1 #2",
      "103":"a #1 #2",
      "104":"a #1 #2",
      "105":"a #1 #2",
      "106":"a #1 #2",
      "107":"a #1 #2",
      "108":"a #1 #2",
      "109":"a #1 #2",
      "110":"a #1 #2",
      "111":"a #1 #2",
      "112":"a #1 #2",
      "113":"a #1 #2",
      "114":"a #1 #2",
      "115":"a #1 #2",
      "116":"a #1 #2",
      "117":"a #1 #2",
      "118":"a #1 #2"
    },
    "firefox":{
      "2":"a #1",
      "3":"a #1",
      "3.5":"a #1",
      "3.6":"a #1",
      "4":"a #1",
      "5":"a #1",
      "6":"a #1",
      "7":"a #1",
      "8":"a #1",
      "9":"a #1",
      "10":"a #1",
      "11":"a #1",
      "12":"a #1",
      "13":"a #1",
      "14":"a #1",
      "15":"a #1",
      "16":"a #1",
      "17":"a #1",
      "18":"a #1",
      "19":"a #1",
      "20":"a #1",
      "21":"a #1",
      "22":"a #1",
      "23":"a #1",
      "24":"a #1",
      "25":"a #1",
      "26":"a #1",
      "27":"a #1",
      "28":"a #1",
      "29":"a #1",
      "30":"a #1",
      "31":"a #1",
      "32":"a #1",
      "33":"a #1",
      "34":"a #1",
      "35":"a #1",
      "36":"a #1",
      "37":"a #1",
      "38":"a #1",
      "39":"a #1",
      "40":"a #1",
      "41":"a #1",
      "42":"a #1",
      "43":"a #1",
      "44":"a #1",
      "45":"a #1",
      "46":"a #1",
      "47":"a #1",
      "48":"a #1",
      "49":"a #1",
      "50":"a #1",
      "51":"a #1",
      "52":"a #1",
      "53":"a #1",
      "54":"a #1",
      "55":"a #1",
      "56":"a #1",
      "57":"a #1",
      "58":"a #1",
      "59":"a #1",
      "60":"a #1",
      "61":"a #1",
      "62":"a #1",
      "63":"a #1",
      "64":"a #1",
      "65":"a #1",
      "66":"a #1",
      "67":"a #1",
      "68":"a #1",
      "69":"a #1",
      "70":"a #1",
      "71":"a #1",
      "72":"a #1",
      "73":"a #1",
      "74":"a #1",
      "75":"a #1",
      "76":"a #1",
      "77":"a #1",
      "78":"a #1",
      "79":"a #1",
      "80":"a #1",
      "81":"a #1",
      "82":"a #1",
      "83":"a #1",
      "84":"a #1",
      "85":"a #1",
      "86":"a #1",
      "87":"a #1",
      "88":"a #1",
      "89":"a #1",
      "90":"a #1",
      "91":"a #1",
      "92":"a #1",
      "93":"a #1",
      "94":"a #1",
      "95":"a #1",
      "96":"a #1",
      "97":"a #1",
      "98":"a #1",
      "99":"a #1",
      "100":"a #1",
      "101":"a #1",
      "102":"a #1",
      "103":"a #1",
      "104":"a #1",
      "105":"a #1",
      "106":"a #1",
      "107":"a #1",
      "108":"a #1",
      "109":"a #1",
      "110":"a #1",
      "111":"a #1",
      "112":"a #1",
      "113":"a #1",
      "114":"a #1",
      "115":"a #1",
      "116":"a #1",
      "117":"a #1",
      "118":"a #1",
      "119":"a #1",
      "120":"a #1",
      "121":"y"
    },
    "chrome":{
      "4":"a #1",
      "5":"a #1",
      "6":"a #1",
      "7":"a #1",
      "8":"a #1",
      "9":"a #1",
      "10":"a #1",
      "11":"a #1",
      "12":"a #1",
      "13":"a #1",
      "14":"a #1",
      "15":"a #1",
      "16":"a #1",
      "17":"a #1",
      "18":"a #1",
      "19":"a #1",
      "20":"a #1",
      "21":"a #1",
      "22":"a #1",
      "23":"a #1",
      "24":"a #1",
      "25":"a #1",
      "26":"a #1",
      "27":"a #1",
      "28":"a #1",
      "29":"a #1",
      "30":"a #1",
      "31":"a #1",
      "32":"a #1",
      "33":"a #1",
      "34":"a #1",
      "35":"a #1",
      "36":"a #1",
      "37":"a #1",
      "38":"a #1 #2",
      "39":"a #1 #2",
      "40":"a #1 #2",
      "41":"a #1 #2",
      "42":"a #1 #2",
      "43":"a #1 #2",
      "44":"a #1 #2",
      "45":"a #1 #2",
      "46":"a #1 #2",
      "47":"a #1 #2",
      "48":"a #1 #2",
      "49":"a #1 #2",
      "50":"a #1 #2",
      "51":"a #1 #2",
      "52":"a #1 #2",
      "53":"a #1 #2",
      "54":"a #1 #2",
      "55":"a #1 #2",
      "56":"a #1 #2",
      "57":"a #1 #2",
      "58":"a #1 #2",
      "59":"a #1 #2",
      "60":"a #1 #2",
      "61":"a #1 #2",
      "62":"a #1 #2",
      "63":"a #1 #2",
      "64":"a #1 #2",
      "65":"a #1 #2",
      "66":"a #1 #2",
      "67":"a #1 #2",
      "68":"a #1 #2",
      "69":"a #1 #2",
      "70":"a #1 #2",
      "71":"a #1 #2",
      "72":"a #1 #2",
      "73":"a #1 #2",
      "74":"a #1 #2",
      "75":"a #1 #2",
      "76":"a #1 #2",
      "77":"a #1 #2",
      "78":"a #1 #2",
      "79":"a #1 #2",
      "80":"a #1 #2",
      "81":"a #1 #2",
      "83":"a #1 #2",
      "84":"a #1 #2",
      "85":"a #1 #2",
      "86":"a #1 #2",
      "87":"a #1 #2",
      "88":"a #1 #2",
      "89":"a #1 #2",
      "90":"a #1 #2",
      "91":"a #1 #2",
      "92":"a #1 #2",
      "93":"a #1 #2",
      "94":"a #1 #2",
      "95":"a #1 #2",
      "96":"a #1 #2",
      "97":"a #1 #2",
      "98":"a #1 #2",
      "99":"a #1 #2",
      "100":"a #1 #2",
      "101":"a #1 #2",
      "102":"a #1 #2",
      "103":"a #1 #2",
      "104":"a #1 #2",
      "105":"a #1 #2",
      "106":"a #1 #2",
      "107":"a #1 #2",
      "108":"a #1 #2",
      "109":"a #1 #2",
      "110":"a #1 #2",
      "111":"a #1 #2",
      "112":"a #1 #2",
      "113":"a #1 #2",
      "114":"a #1 #2",
      "115":"a #1 #2",
      "116":"a #1 #2",
      "117":"a #1 #2",
      "118":"a #1 #2",
      "119":"a #1 #2",
      "120":"a #1 #2",
      "121":"a #1 #2"
    },
    "safari":{
      "3.1":"a #1",
      "3.2":"a #1",
      "4":"a #1",
      "5":"a #1",
      "5.1":"a #1",
      "6":"a #1",
      "6.1":"a #1",
      "7":"a #1",
      "7.1":"a #1",
      "8":"a #1",
      "9":"a #1",
      "9.1":"a #1",
      "10":"a #1",
      "10.1":"a #1",
      "11":"a #1",
      "11.1":"a #1",
      "12":"a #1",
      "12.1":"a #1",
      "13":"a #1",
      "13.1":"a #1",
      "14":"a #1",
      "14.1":"a #1",
      "15":"a #1",
      "15.1":"a #1",
      "15.2-15.3":"a #1",
      "15.4":"a #1",
      "15.5":"a #1",
      "15.6":"a #1",
      "16.0":"y",
      "16.1":"y",
      "16.2":"y",
      "16.3":"y",
      "16.4":"y",
      "16.5":"y",
      "16.6":"y",
      "17.0":"y",
      "17.1":"y",
      "TP":"y"
    },
    "opera":{
      "9":"a #1",
      "9.5-9.6":"a #1",
      "10.0-10.1":"a #1",
      "10.5":"a #1",
      "10.6":"a #1",
      "11":"a #1",
      "11.1":"a #1",
      "11.5":"a #1",
      "11.6":"a #1",
      "12":"a #1",
      "12.1":"a #1",
      "15":"a #1",
      "16":"a #1",
      "17":"a #1",
      "18":"a #1",
      "19":"a #1",
      "20":"a #1",
      "21":"a #1",
      "22":"a #1",
      "23":"a #1",
      "24":"a #1",
      "25":"a #1 #2",
      "26":"a #1 #2",
      "27":"a #1 #2",
      "28":"a #1 #2",
      "29":"a #1 #2",
      "30":"a #1 #2",
      "31":"a #1 #2",
      "32":"a #1 #2",
      "33":"a #1 #2",
      "34":"a #1 #2",
      "35":"a #1 #2",
      "36":"a #1 #2",
      "37":"a #1 #2",
      "38":"a #1 #2",
      "39":"a #1 #2",
      "40":"a #1 #2",
      "41":"a #1 #2",
      "42":"a #1 #2",
      "43":"a #1 #2",
      "44":"a #1 #2",
      "45":"a #1 #2",
      "46":"a #1 #2",
      "47":"a #1 #2",
      "48":"a #1 #2",
      "49":"a #1 #2",
      "50":"a #1 #2",
      "51":"a #1 #2",
      "52":"a #1 #2",
      "53":"a #1 #2",
      "54":"a #1 #2",
      "55":"a #1 #2",
      "56":"a #1 #2",
      "57":"a #1 #2",
      "58":"a #1 #2",
      "60":"a #1 #2",
      "62":"a #1 #2",
      "63":"a #1 #2",
      "64":"a #1 #2",
      "65":"a #1 #2",
      "66":"a #1 #2",
      "67":"a #1 #2",
      "68":"a #1 #2",
      "69":"a #1 #2",
      "70":"a #1 #2",
      "71":"a #1 #2",
      "72":"a #1 #2",
      "73":"a #1 #2",
      "74":"a #1 #2",
      "75":"a #1 #2",
      "76":"a #1 #2",
      "77":"a #1 #2",
      "78":"a #1 #2",
      "79":"a #1 #2",
      "80":"a #1 #2",
      "81":"a #1 #2",
      "82":"a #1 #2",
      "83":"a #1 #2",
      "84":"a #1 #2",
      "85":"a #1 #2",
      "86":"a #1 #2",
      "87":"a #1 #2",
      "88":"a #1 #2",
      "89":"a #1 #2",
      "90":"a #1 #2",
      "91":"a #1 #2",
      "92":"a #1 #2",
      "93":"a #1 #2",
      "94":"a #1 #2",
      "95":"a #1 #2",
      "96":"a #1 #2",
      "97":"a #1 #2",
      "98":"a #1 #2",
      "99":"a #1 #2",
      "100":"a #1 #2",
      "101":"a #1 #2",
      "102":"a #1 #2",
      "103":"a #1 #2"
    },
    "ios_saf":{
      "3.2":"a #1",
      "4.0-4.1":"a #1",
      "4.2-4.3":"a #1",
      "5.0-5.1":"a #1",
      "6.0-6.1":"a #1",
      "7.0-7.1":"a #1",
      "8":"a #1",
      "8.1-8.4":"a #1",
      "9.0-9.2":"a #1",
      "9.3":"a #1",
      "10.0-10.2":"a #1",
      "10.3":"a #1",
      "11.0-11.2":"a #1",
      "11.3-11.4":"a #1",
      "12.0-12.1":"a #1",
      "12.2-12.5":"a #1",
      "13.0-13.1":"a #1",
      "13.2":"a #1",
      "13.3":"a #1",
      "13.4-13.7":"a #1",
      "14.0-14.4":"a #1",
      "14.5-14.8":"a #1",
      "15.0-15.1":"a #1",
      "15.2-15.3":"a #1",
      "15.4":"a #1",
      "15.5":"a #1",
      "15.6-15.7":"a #1",
      "16.0":"y",
      "16.1":"y",
      "16.2":"y",
      "16.3":"y",
      "16.4":"y",
      "16.5":"y",
      "16.6":"y",
      "17.0":"y",
      "17.1":"y"
    },
    "op_mini":{
      "all":"a #1"
    },
    "android":{
      "2.1":"a #1",
      "2.2":"a #1",
      "2.3":"a #1",
      "3":"a #1",
      "4":"a #1",
      "4.1":"a #1",
      "4.2-4.3":"a #1",
      "4.4":"a #1",
      "4.4.3-4.4.4":"a #1",
      "118":"a #1 #2"
    },
    "bb":{
      "7":"a #1",
      "10":"a #1"
    },
    "op_mob":{
      "10":"a #1",
      "11":"a #1",
      "11.1":"a #1",
      "11.5":"a #1",
      "12":"a #1",
      "12.1":"a #1",
      "73":"a #1 #2"
    },
    "and_chr":{
      "118":"a #1 #2"
    },
    "and_ff":{
      "118":"a #1"
    },
    "ie_mob":{
      "10":"a #1",
      "11":"a #1"
    },
    "and_uc":{
      "15.5":"a #1 #2"
    },
    "samsung":{
      "4":"a #1",
      "5.0-5.4":"a #1 #2",
      "6.2-6.4":"a #1 #2",
      "7.2-7.4":"a #1 #2",
      "8.2":"a #1 #2",
      "9.2":"a #1 #2",
      "10.1":"a #1 #2",
      "11.1-11.2":"a #1 #2",
      "12.0":"a #1 #2",
      "13.0":"a #1 #2",
      "14.0":"a #1 #2",
      "15.0":"a #1 #2",
      "16.0":"a #1 #2",
      "17.0":"a #1 #2",
      "18.0":"a #1 #2",
      "19.0":"a #1 #2",
      "20":"a #1 #2",
      "21":"a #1 #2",
      "22":"a #1 #2"
    },
    "and_qq":{
      "13.1":"a #1 #2"
    },
    "baidu":{
      "13.18":"a #1 #2"
    },
    "kaios":{
      "2.5":"a #1",
      "3.0-3.1":"a #1"
    }
  },
  "notes":"",
  "notes_by_num":{
    "1":"Partial support refers to supporting a `<length>` value, but not the `each-line` or `hanging` keywords.",
    "2":"Support for `each-line` & `hanging` is available behind the Experimental Web Platform features flag"
  },
  "usage_perc_y":15.6,
  "usage_perc_a":82.79,
  "ucprefix":false,
  "parent":"",
  "keywords":"each-line,hanging",
  "ie_id":"",
  "chrome_id":"",
  "firefox_id":"",
  "webkit_id":"",
  "shown":true
}
