{
  "title":"DOM manipulation convenience methods",
  "description":"jQuery-like methods on DOM nodes to insert nodes around or within a node, or to replace one node with another. These methods accept any number of DOM nodes or HTML strings as arguments. Includes: `ChildNode.before`, `ChildNode.after`, `ChildNode.replaceWith`, `ParentNode.prepend`, and `ParentNode.append`.",
  "spec":"https://dom.spec.whatwg.org/#interface-childnode",
  "status":"ls",
  "links":[
    {
      "url":"https://dom.spec.whatwg.org/#interface-childnode",
      "title":"WHATWG DOM Specification for ChildNode"
    },
    {
      "url":"https://dom.spec.whatwg.org/#interface-parentnode",
      "title":"WHATWG DOM Specification for ParentNode"
    },
    {
      "url":"https://jsbin.com/fiqacod/edit?html,js,output",
      "title":"JS Bin testcase"
    },
    {
      "url":"https://github.com/WebReflection/dom4",
      "title":"DOM4 polyfill"
    }
  ],
  "bugs":[
    
  ],
  "categories":[
    "DOM"
  ],
  "stats":{
    "ie":{
      "5.5":"n",
      "6":"n",
      "7":"n",
      "8":"n",
      "9":"n",
      "10":"n",
      "11":"n"
    },
    "edge":{
      "12":"n",
      "13":"n",
      "14":"n",
      "15":"n",
      "16":"n",
      "17":"y",
      "18":"y",
      "79":"y",
      "80":"y",
      "81":"y",
      "83":"y",
      "84":"y",
      "85":"y",
      "86":"y",
      "87":"y",
      "88":"y",
      "89":"y",
      "90":"y",
      "91":"y",
      "92":"y",
      "93":"y",
      "94":"y",
      "95":"y",
      "96":"y",
      "97":"y",
      "98":"y",
      "99":"y",
      "100":"y",
      "101":"y",
      "102":"y",
      "103":"y",
      "104":"y",
      "105":"y",
      "106":"y",
      "107":"y",
      "108":"y",
      "109":"y",
      "110":"y",
      "111":"y",
      "112":"y",
      "113":"y",
      "114":"y",
      "115":"y",
      "116":"y",
      "117":"y",
      "118":"y"
    },
    "firefox":{
      "2":"n",
      "3":"n",
      "3.5":"n",
      "3.6":"n",
      "4":"n",
      "5":"n",
      "6":"n",
      "7":"n",
      "8":"n",
      "9":"n",
      "10":"n",
      "11":"n",
      "12":"n",
      "13":"n",
      "14":"n",
      "15":"n",
      "16":"n",
      "17":"n",
      "18":"n",
      "19":"n",
      "20":"n",
      "21":"n",
      "22":"n",
      "23":"n",
      "24":"n",
      "25":"n",
      "26":"n",
      "27":"n",
      "28":"n",
      "29":"n",
      "30":"n",
      "31":"n",
      "32":"n",
      "33":"n",
      "34":"n",
      "35":"n",
      "36":"n",
      "37":"n",
      "38":"n",
      "39":"n",
      "40":"n",
      "41":"n",
      "42":"n",
      "43":"n",
      "44":"n",
      "45":"n",
      "46":"n",
      "47":"n",
      "48":"n",
      "49":"y",
      "50":"y",
      "51":"y",
      "52":"y",
      "53":"y",
      "54":"y",
      "55":"y",
      "56":"y",
      "57":"y",
      "58":"y",
      "59":"y",
      "60":"y",
      "61":"y",
      "62":"y",
      "63":"y",
      "64":"y",
      "65":"y",
      "66":"y",
      "67":"y",
      "68":"y",
      "69":"y",
      "70":"y",
      "71":"y",
      "72":"y",
      "73":"y",
      "74":"y",
      "75":"y",
      "76":"y",
      "77":"y",
      "78":"y",
      "79":"y",
      "80":"y",
      "81":"y",
      "82":"y",
      "83":"y",
      "84":"y",
      "85":"y",
      "86":"y",
      "87":"y",
      "88":"y",
      "89":"y",
      "90":"y",
      "91":"y",
      "92":"y",
      "93":"y",
      "94":"y",
      "95":"y",
      "96":"y",
      "97":"y",
      "98":"y",
      "99":"y",
      "100":"y",
      "101":"y",
      "102":"y",
      "103":"y",
      "104":"y",
      "105":"y",
      "106":"y",
      "107":"y",
      "108":"y",
      "109":"y",
      "110":"y",
      "111":"y",
      "112":"y",
      "113":"y",
      "114":"y",
      "115":"y",
      "116":"y",
      "117":"y",
      "118":"y",
      "119":"y",
      "120":"y",
      "121":"y"
    },
    "chrome":{
      "4":"n",
      "5":"n",
      "6":"n",
      "7":"n",
      "8":"n",
      "9":"n",
      "10":"n",
      "11":"n",
      "12":"n",
      "13":"n",
      "14":"n",
      "15":"n",
      "16":"n",
      "17":"n",
      "18":"n",
      "19":"n",
      "20":"n",
      "21":"n",
      "22":"n",
      "23":"n",
      "24":"n",
      "25":"n",
      "26":"n",
      "27":"n",
      "28":"n",
      "29":"n",
      "30":"n",
      "31":"n",
      "32":"n",
      "33":"n",
      "34":"n",
      "35":"n",
      "36":"n",
      "37":"n",
      "38":"n",
      "39":"n",
      "40":"n",
      "41":"n",
      "42":"n",
      "43":"n",
      "44":"n",
      "45":"n",
      "46":"n",
      "47":"n",
      "48":"n",
      "49":"n",
      "50":"n",
      "51":"n",
      "52":"n d #1",
      "53":"n d #1",
      "54":"y",
      "55":"y",
      "56":"y",
      "57":"y",
      "58":"y",
      "59":"y",
      "60":"y",
      "61":"y",
      "62":"y",
      "63":"y",
      "64":"y",
      "65":"y",
      "66":"y",
      "67":"y",
      "68":"y",
      "69":"y",
      "70":"y",
      "71":"y",
      "72":"y",
      "73":"y",
      "74":"y",
      "75":"y",
      "76":"y",
      "77":"y",
      "78":"y",
      "79":"y",
      "80":"y",
      "81":"y",
      "83":"y",
      "84":"y",
      "85":"y",
      "86":"y",
      "87":"y",
      "88":"y",
      "89":"y",
      "90":"y",
      "91":"y",
      "92":"y",
      "93":"y",
      "94":"y",
      "95":"y",
      "96":"y",
      "97":"y",
      "98":"y",
      "99":"y",
      "100":"y",
      "101":"y",
      "102":"y",
      "103":"y",
      "104":"y",
      "105":"y",
      "106":"y",
      "107":"y",
      "108":"y",
      "109":"y",
      "110":"y",
      "111":"y",
      "112":"y",
      "113":"y",
      "114":"y",
      "115":"y",
      "116":"y",
      "117":"y",
      "118":"y",
      "119":"y",
      "120":"y",
      "121":"y"
    },
    "safari":{
      "3.1":"n",
      "3.2":"n",
      "4":"n",
      "5":"n",
      "5.1":"n",
      "6":"n",
      "6.1":"n",
      "7":"n",
      "7.1":"n",
      "8":"n",
      "9":"n",
      "9.1":"n",
      "10":"y",
      "10.1":"y",
      "11":"y",
      "11.1":"y",
      "12":"y",
      "12.1":"y",
      "13":"y",
      "13.1":"y",
      "14":"y",
      "14.1":"y",
      "15":"y",
      "15.1":"y",
      "15.2-15.3":"y",
      "15.4":"y",
      "15.5":"y",
      "15.6":"y",
      "16.0":"y",
      "16.1":"y",
      "16.2":"y",
      "16.3":"y",
      "16.4":"y",
      "16.5":"y",
      "16.6":"y",
      "17.0":"y",
      "17.1":"y",
      "TP":"y"
    },
    "opera":{
      "9":"n",
      "9.5-9.6":"n",
      "10.0-10.1":"n",
      "10.5":"n",
      "10.6":"n",
      "11":"n",
      "11.1":"n",
      "11.5":"n",
      "11.6":"n",
      "12":"n",
      "12.1":"n",
      "15":"n",
      "16":"n",
      "17":"n",
      "18":"n",
      "19":"n",
      "20":"n",
      "21":"n",
      "22":"n",
      "23":"n",
      "24":"n",
      "25":"n",
      "26":"n",
      "27":"n",
      "28":"n",
      "29":"n",
      "30":"n",
      "31":"n",
      "32":"n",
      "33":"n",
      "34":"n",
      "35":"n",
      "36":"n",
      "37":"n",
      "38":"n",
      "39":"n",
      "40":"n d #1",
      "41":"y",
      "42":"y",
      "43":"y",
      "44":"y",
      "45":"y",
      "46":"y",
      "47":"y",
      "48":"y",
      "49":"y",
      "50":"y",
      "51":"y",
      "52":"y",
      "53":"y",
      "54":"y",
      "55":"y",
      "56":"y",
      "57":"y",
      "58":"y",
      "60":"y",
      "62":"y",
      "63":"y",
      "64":"y",
      "65":"y",
      "66":"y",
      "67":"y",
      "68":"y",
      "69":"y",
      "70":"y",
      "71":"y",
      "72":"y",
      "73":"y",
      "74":"y",
      "75":"y",
      "76":"y",
      "77":"y",
      "78":"y",
      "79":"y",
      "80":"y",
      "81":"y",
      "82":"y",
      "83":"y",
      "84":"y",
      "85":"y",
      "86":"y",
      "87":"y",
      "88":"y",
      "89":"y",
      "90":"y",
      "91":"y",
      "92":"y",
      "93":"y",
      "94":"y",
      "95":"y",
      "96":"y",
      "97":"y",
      "98":"y",
      "99":"y",
      "100":"y",
      "101":"y",
      "102":"y",
      "103":"y"
    },
    "ios_saf":{
      "3.2":"n",
      "4.0-4.1":"n",
      "4.2-4.3":"n",
      "5.0-5.1":"n",
      "6.0-6.1":"n",
      "7.0-7.1":"n",
      "8":"n",
      "8.1-8.4":"n",
      "9.0-9.2":"n",
      "9.3":"n",
      "10.0-10.2":"y",
      "10.3":"y",
      "11.0-11.2":"y",
      "11.3-11.4":"y",
      "12.0-12.1":"y",
      "12.2-12.5":"y",
      "13.0-13.1":"y",
      "13.2":"y",
      "13.3":"y",
      "13.4-13.7":"y",
      "14.0-14.4":"y",
      "14.5-14.8":"y",
      "15.0-15.1":"y",
      "15.2-15.3":"y",
      "15.4":"y",
      "15.5":"y",
      "15.6-15.7":"y",
      "16.0":"y",
      "16.1":"y",
      "16.2":"y",
      "16.3":"y",
      "16.4":"y",
      "16.5":"y",
      "16.6":"y",
      "17.0":"y",
      "17.1":"y"
    },
    "op_mini":{
      "all":"n"
    },
    "android":{
      "2.1":"n",
      "2.2":"n",
      "2.3":"n",
      "3":"n",
      "4":"n",
      "4.1":"n",
      "4.2-4.3":"n",
      "4.4":"n",
      "4.4.3-4.4.4":"n",
      "118":"y"
    },
    "bb":{
      "7":"n",
      "10":"n"
    },
    "op_mob":{
      "10":"n",
      "11":"n",
      "11.1":"n",
      "11.5":"n",
      "12":"n",
      "12.1":"n",
      "73":"y"
    },
    "and_chr":{
      "118":"y"
    },
    "and_ff":{
      "118":"y"
    },
    "ie_mob":{
      "10":"n",
      "11":"n"
    },
    "and_uc":{
      "15.5":"y"
    },
    "samsung":{
      "4":"n",
      "5.0-5.4":"n",
      "6.2-6.4":"y",
      "7.2-7.4":"y",
      "8.2":"y",
      "9.2":"y",
      "10.1":"y",
      "11.1-11.2":"y",
      "12.0":"y",
      "13.0":"y",
      "14.0":"y",
      "15.0":"y",
      "16.0":"y",
      "17.0":"y",
      "18.0":"y",
      "19.0":"y",
      "20":"y",
      "21":"y",
      "22":"y"
    },
    "and_qq":{
      "13.1":"y"
    },
    "baidu":{
      "13.18":"y"
    },
    "kaios":{
      "2.5":"n",
      "3.0-3.1":"y"
    }
  },
  "notes":"",
  "notes_by_num":{
    "1":"Enabled through the \"Enable Experimental Web Platform Features\" flag in chrome://flags"
  },
  "usage_perc_y":95.96,
  "usage_perc_a":0,
  "ucprefix":false,
  "parent":"",
  "keywords":"dom,manipulation,convenience,convenient,before,after,replaceWith,prepend,append",
  "ie_id":"domparentnodemethodsprependappendandchildnodemethodsbeforeafterandreplacewith",
  "chrome_id":"5723067795898368",
  "firefox_id":"",
  "webkit_id":"",
  "shown":true
}
