{
  "title":"Import maps",
  "description":"Import maps allow control over what URLs get fetched by JavaScript `import` statements and `import()` expressions.",
  "spec":"https://wicg.github.io/import-maps/",
  "status":"unoff",
  "links":[
    {
      "url":"https://github.com/WICG/import-maps#readme",
      "title":"Proposal information"
    },
    {
      "url":"https://blog.logrocket.com/es-modules-in-browsers-with-import-maps/",
      "title":"Using ES modules in browsers with import-maps"
    },
    {
      "url":"https://bugzilla.mozilla.org/show_bug.cgi?id=1688879",
      "title":"Firefox feature request bug"
    },
    {
      "url":"https://bugs.webkit.org/show_bug.cgi?id=220823",
      "title":"WebKit feature request bug"
    }
  ],
  "bugs":[
    
  ],
  "categories":[
    "JS"
  ],
  "stats":{
    "ie":{
      "5.5":"n",
      "6":"n",
      "7":"n",
      "8":"n",
      "9":"n",
      "10":"n",
      "11":"n"
    },
    "edge":{
      "12":"n",
      "13":"n",
      "14":"n",
      "15":"n",
      "16":"n",
      "17":"n",
      "18":"n",
      "79":"n d #1",
      "80":"n d #1",
      "81":"n d #1",
      "83":"n d #1",
      "84":"n d #1",
      "85":"n d #1",
      "86":"n d #1",
      "87":"n d #1",
      "88":"n d #1",
      "89":"y",
      "90":"y",
      "91":"y",
      "92":"y",
      "93":"y",
      "94":"y",
      "95":"y",
      "96":"y",
      "97":"y",
      "98":"y",
      "99":"y",
      "100":"y",
      "101":"y",
      "102":"y",
      "103":"y",
      "104":"y",
      "105":"y",
      "106":"y",
      "107":"y",
      "108":"y",
      "109":"y",
      "110":"y",
      "111":"y",
      "112":"y",
      "113":"y",
      "114":"y",
      "115":"y",
      "116":"y",
      "117":"y",
      "118":"y"
    },
    "firefox":{
      "2":"n",
      "3":"n",
      "3.5":"n",
      "3.6":"n",
      "4":"n",
      "5":"n",
      "6":"n",
      "7":"n",
      "8":"n",
      "9":"n",
      "10":"n",
      "11":"n",
      "12":"n",
      "13":"n",
      "14":"n",
      "15":"n",
      "16":"n",
      "17":"n",
      "18":"n",
      "19":"n",
      "20":"n",
      "21":"n",
      "22":"n",
      "23":"n",
      "24":"n",
      "25":"n",
      "26":"n",
      "27":"n",
      "28":"n",
      "29":"n",
      "30":"n",
      "31":"n",
      "32":"n",
      "33":"n",
      "34":"n",
      "35":"n",
      "36":"n",
      "37":"n",
      "38":"n",
      "39":"n",
      "40":"n",
      "41":"n",
      "42":"n",
      "43":"n",
      "44":"n",
      "45":"n",
      "46":"n",
      "47":"n",
      "48":"n",
      "49":"n",
      "50":"n",
      "51":"n",
      "52":"n",
      "53":"n",
      "54":"n",
      "55":"n",
      "56":"n",
      "57":"n",
      "58":"n",
      "59":"n",
      "60":"n",
      "61":"n",
      "62":"n",
      "63":"n",
      "64":"n",
      "65":"n",
      "66":"n",
      "67":"n",
      "68":"n",
      "69":"n",
      "70":"n",
      "71":"n",
      "72":"n",
      "73":"n",
      "74":"n",
      "75":"n",
      "76":"n",
      "77":"n",
      "78":"n",
      "79":"n",
      "80":"n",
      "81":"n",
      "82":"n",
      "83":"n",
      "84":"n",
      "85":"n",
      "86":"n",
      "87":"n",
      "88":"n",
      "89":"n",
      "90":"n",
      "91":"n",
      "92":"n",
      "93":"n",
      "94":"n",
      "95":"n",
      "96":"n",
      "97":"n",
      "98":"n",
      "99":"n",
      "100":"n",
      "101":"n",
      "102":"n d #2",
      "103":"n d #2",
      "104":"n d #2",
      "105":"n d #2",
      "106":"n d #2",
      "107":"n d #2",
      "108":"y",
      "109":"y",
      "110":"y",
      "111":"y",
      "112":"y",
      "113":"y",
      "114":"y",
      "115":"y",
      "116":"y",
      "117":"y",
      "118":"y",
      "119":"y",
      "120":"y",
      "121":"y"
    },
    "chrome":{
      "4":"n",
      "5":"n",
      "6":"n",
      "7":"n",
      "8":"n",
      "9":"n",
      "10":"n",
      "11":"n",
      "12":"n",
      "13":"n",
      "14":"n",
      "15":"n",
      "16":"n",
      "17":"n",
      "18":"n",
      "19":"n",
      "20":"n",
      "21":"n",
      "22":"n",
      "23":"n",
      "24":"n",
      "25":"n",
      "26":"n",
      "27":"n",
      "28":"n",
      "29":"n",
      "30":"n",
      "31":"n",
      "32":"n",
      "33":"n",
      "34":"n",
      "35":"n",
      "36":"n",
      "37":"n",
      "38":"n",
      "39":"n",
      "40":"n",
      "41":"n",
      "42":"n",
      "43":"n",
      "44":"n",
      "45":"n",
      "46":"n",
      "47":"n",
      "48":"n",
      "49":"n",
      "50":"n",
      "51":"n",
      "52":"n",
      "53":"n",
      "54":"n",
      "55":"n",
      "56":"n",
      "57":"n",
      "58":"n",
      "59":"n",
      "60":"n",
      "61":"n",
      "62":"n",
      "63":"n",
      "64":"n",
      "65":"n",
      "66":"n",
      "67":"n",
      "68":"n",
      "69":"n",
      "70":"n",
      "71":"n",
      "72":"n",
      "73":"n",
      "74":"n d #1",
      "75":"n d #1",
      "76":"n d #1",
      "77":"n d #1",
      "78":"n d #1",
      "79":"n d #1",
      "80":"n d #1",
      "81":"n d #1",
      "83":"n d #1",
      "84":"n d #1",
      "85":"n d #1",
      "86":"n d #1",
      "87":"n d #1",
      "88":"n d #1",
      "89":"y",
      "90":"y",
      "91":"y",
      "92":"y",
      "93":"y",
      "94":"y",
      "95":"y",
      "96":"y",
      "97":"y",
      "98":"y",
      "99":"y",
      "100":"y",
      "101":"y",
      "102":"y",
      "103":"y",
      "104":"y",
      "105":"y",
      "106":"y",
      "107":"y",
      "108":"y",
      "109":"y",
      "110":"y",
      "111":"y",
      "112":"y",
      "113":"y",
      "114":"y",
      "115":"y",
      "116":"y",
      "117":"y",
      "118":"y",
      "119":"y",
      "120":"y",
      "121":"y"
    },
    "safari":{
      "3.1":"n",
      "3.2":"n",
      "4":"n",
      "5":"n",
      "5.1":"n",
      "6":"n",
      "6.1":"n",
      "7":"n",
      "7.1":"n",
      "8":"n",
      "9":"n",
      "9.1":"n",
      "10":"n",
      "10.1":"n",
      "11":"n",
      "11.1":"n",
      "12":"n",
      "12.1":"n",
      "13":"n",
      "13.1":"n",
      "14":"n",
      "14.1":"n",
      "15":"n",
      "15.1":"n",
      "15.2-15.3":"n",
      "15.4":"n",
      "15.5":"n",
      "15.6":"n",
      "16.0":"n",
      "16.1":"n",
      "16.2":"n",
      "16.3":"n",
      "16.4":"y",
      "16.5":"y",
      "16.6":"y",
      "17.0":"y",
      "17.1":"y",
      "TP":"y"
    },
    "opera":{
      "9":"n",
      "9.5-9.6":"n",
      "10.0-10.1":"n",
      "10.5":"n",
      "10.6":"n",
      "11":"n",
      "11.1":"n",
      "11.5":"n",
      "11.6":"n",
      "12":"n",
      "12.1":"n",
      "15":"n",
      "16":"n",
      "17":"n",
      "18":"n",
      "19":"n",
      "20":"n",
      "21":"n",
      "22":"n",
      "23":"n",
      "24":"n",
      "25":"n",
      "26":"n",
      "27":"n",
      "28":"n",
      "29":"n",
      "30":"n",
      "31":"n",
      "32":"n",
      "33":"n",
      "34":"n",
      "35":"n",
      "36":"n",
      "37":"n",
      "38":"n",
      "39":"n",
      "40":"n",
      "41":"n",
      "42":"n",
      "43":"n",
      "44":"n",
      "45":"n",
      "46":"n",
      "47":"n",
      "48":"n",
      "49":"n",
      "50":"n",
      "51":"n",
      "52":"n",
      "53":"n",
      "54":"n",
      "55":"n",
      "56":"n",
      "57":"n",
      "58":"n",
      "60":"n",
      "62":"n d #1",
      "63":"n d #1",
      "64":"n d #1",
      "65":"n d #1",
      "66":"n d #1",
      "67":"n d #1",
      "68":"n d #1",
      "69":"n d #1",
      "70":"n d #1",
      "71":"n d #1",
      "72":"n d #1",
      "73":"n d #1",
      "74":"n d #1",
      "75":"n d #1",
      "76":"y",
      "77":"y",
      "78":"y",
      "79":"y",
      "80":"y",
      "81":"y",
      "82":"y",
      "83":"y",
      "84":"y",
      "85":"y",
      "86":"y",
      "87":"y",
      "88":"y",
      "89":"y",
      "90":"y",
      "91":"y",
      "92":"y",
      "93":"y",
      "94":"y",
      "95":"y",
      "96":"y",
      "97":"y",
      "98":"y",
      "99":"y",
      "100":"y",
      "101":"y",
      "102":"y",
      "103":"y"
    },
    "ios_saf":{
      "3.2":"n",
      "4.0-4.1":"n",
      "4.2-4.3":"n",
      "5.0-5.1":"n",
      "6.0-6.1":"n",
      "7.0-7.1":"n",
      "8":"n",
      "8.1-8.4":"n",
      "9.0-9.2":"n",
      "9.3":"n",
      "10.0-10.2":"n",
      "10.3":"n",
      "11.0-11.2":"n",
      "11.3-11.4":"n",
      "12.0-12.1":"n",
      "12.2-12.5":"n",
      "13.0-13.1":"n",
      "13.2":"n",
      "13.3":"n",
      "13.4-13.7":"n",
      "14.0-14.4":"n",
      "14.5-14.8":"n",
      "15.0-15.1":"n",
      "15.2-15.3":"n",
      "15.4":"n",
      "15.5":"n",
      "15.6-15.7":"n",
      "16.0":"n",
      "16.1":"n",
      "16.2":"n",
      "16.3":"n",
      "16.4":"y",
      "16.5":"y",
      "16.6":"y",
      "17.0":"y",
      "17.1":"y"
    },
    "op_mini":{
      "all":"n"
    },
    "android":{
      "2.1":"n",
      "2.2":"n",
      "2.3":"n",
      "3":"n",
      "4":"n",
      "4.1":"n",
      "4.2-4.3":"n",
      "4.4":"n",
      "4.4.3-4.4.4":"n",
      "118":"y"
    },
    "bb":{
      "7":"n",
      "10":"n"
    },
    "op_mob":{
      "10":"n",
      "11":"n",
      "11.1":"n",
      "11.5":"n",
      "12":"n",
      "12.1":"n",
      "73":"y"
    },
    "and_chr":{
      "118":"y"
    },
    "and_ff":{
      "118":"y"
    },
    "ie_mob":{
      "10":"n",
      "11":"n"
    },
    "and_uc":{
      "15.5":"y"
    },
    "samsung":{
      "4":"n",
      "5.0-5.4":"n",
      "6.2-6.4":"n",
      "7.2-7.4":"n",
      "8.2":"n",
      "9.2":"n",
      "10.1":"n",
      "11.1-11.2":"n",
      "12.0":"n",
      "13.0":"n",
      "14.0":"n",
      "15.0":"y",
      "16.0":"y",
      "17.0":"y",
      "18.0":"y",
      "19.0":"y",
      "20":"y",
      "21":"y",
      "22":"y"
    },
    "and_qq":{
      "13.1":"n"
    },
    "baidu":{
      "13.18":"y"
    },
    "kaios":{
      "2.5":"n",
      "3.0-3.1":"n"
    }
  },
  "notes":"",
  "notes_by_num":{
    "1":"Can be enabled via the \"Experimental Web Platform features\" flag at `about:flags`.",
    "2":"Can be enabled via the `dom.importMaps.enabled` pref in `about:config`."
  },
  "usage_perc_y":87.01,
  "usage_perc_a":0,
  "ucprefix":false,
  "parent":"",
  "keywords":"importmap",
  "ie_id":"",
  "chrome_id":"5315286962012160",
  "firefox_id":"",
  "webkit_id":"",
  "shown":true
}
