{
  "title":"JPEG 2000 image format",
  "description":"JPEG 2000 was built to supersede the original JPEG format by having better compression and more features. [WebP](/webp), [AVIF](/avif) and [JPEG XL](/jpegxl) are all designed to supersede JPEG 2000.",
  "spec":"https://www.itu.int/rec/T-REC-T.800-200208-I",
  "status":"other",
  "links":[
    {
      "url":"https://en.wikipedia.org/wiki/JPEG_2000",
      "title":"Wikipedia article"
    }
  ],
  "bugs":[
    
  ],
  "categories":[
    "Other"
  ],
  "stats":{
    "ie":{
      "5.5":"n",
      "6":"n",
      "7":"n",
      "8":"n",
      "9":"n",
      "10":"n",
      "11":"n"
    },
    "edge":{
      "12":"n",
      "13":"n",
      "14":"n",
      "15":"n",
      "16":"n",
      "17":"n",
      "18":"n",
      "79":"n",
      "80":"n",
      "81":"n",
      "83":"n",
      "84":"n",
      "85":"n",
      "86":"n",
      "87":"n",
      "88":"n",
      "89":"n",
      "90":"n",
      "91":"n",
      "92":"n",
      "93":"n",
      "94":"n",
      "95":"n",
      "96":"n",
      "97":"n",
      "98":"n",
      "99":"n",
      "100":"n",
      "101":"n",
      "102":"n",
      "103":"n",
      "104":"n",
      "105":"n",
      "106":"n",
      "107":"n",
      "108":"n",
      "109":"n",
      "110":"n",
      "111":"n",
      "112":"n",
      "113":"n",
      "114":"n",
      "115":"n",
      "116":"n",
      "117":"n",
      "118":"n"
    },
    "firefox":{
      "2":"n",
      "3":"n",
      "3.5":"n",
      "3.6":"n",
      "4":"n",
      "5":"n",
      "6":"n",
      "7":"n",
      "8":"n",
      "9":"n",
      "10":"n",
      "11":"n",
      "12":"n",
      "13":"n",
      "14":"n",
      "15":"n",
      "16":"n",
      "17":"n",
      "18":"n",
      "19":"n",
      "20":"n",
      "21":"n",
      "22":"n",
      "23":"n",
      "24":"n",
      "25":"n",
      "26":"n",
      "27":"n",
      "28":"n",
      "29":"n",
      "30":"n",
      "31":"n",
      "32":"n",
      "33":"n",
      "34":"n",
      "35":"n",
      "36":"n",
      "37":"n",
      "38":"n",
      "39":"n",
      "40":"n",
      "41":"n",
      "42":"n",
      "43":"n",
      "44":"n",
      "45":"n",
      "46":"n",
      "47":"n",
      "48":"n",
      "49":"n",
      "50":"n",
      "51":"n",
      "52":"n",
      "53":"n",
      "54":"n",
      "55":"n",
      "56":"n",
      "57":"n",
      "58":"n",
      "59":"n",
      "60":"n",
      "61":"n",
      "62":"n",
      "63":"n",
      "64":"n",
      "65":"n",
      "66":"n",
      "67":"n",
      "68":"n",
      "69":"n",
      "70":"n",
      "71":"n",
      "72":"n",
      "73":"n",
      "74":"n",
      "75":"n",
      "76":"n",
      "77":"n",
      "78":"n",
      "79":"n",
      "80":"n",
      "81":"n",
      "82":"n",
      "83":"n",
      "84":"n",
      "85":"n",
      "86":"n",
      "87":"n",
      "88":"n",
      "89":"n",
      "90":"n",
      "91":"n",
      "92":"n",
      "93":"n",
      "94":"n",
      "95":"n",
      "96":"n",
      "97":"n",
      "98":"n",
      "99":"n",
      "100":"n",
      "101":"n",
      "102":"n",
      "103":"n",
      "104":"n",
      "105":"n",
      "106":"n",
      "107":"n",
      "108":"n",
      "109":"n",
      "110":"n",
      "111":"n",
      "112":"n",
      "113":"n",
      "114":"n",
      "115":"n",
      "116":"n",
      "117":"n",
      "118":"n",
      "119":"n",
      "120":"n",
      "121":"n"
    },
    "chrome":{
      "4":"n",
      "5":"n",
      "6":"n",
      "7":"n",
      "8":"n",
      "9":"n",
      "10":"n",
      "11":"n",
      "12":"n",
      "13":"n",
      "14":"n",
      "15":"n",
      "16":"n",
      "17":"n",
      "18":"n",
      "19":"n",
      "20":"n",
      "21":"n",
      "22":"n",
      "23":"n",
      "24":"n",
      "25":"n",
      "26":"n",
      "27":"n",
      "28":"n",
      "29":"n",
      "30":"n",
      "31":"n",
      "32":"n",
      "33":"n",
      "34":"n",
      "35":"n",
      "36":"n",
      "37":"n",
      "38":"n",
      "39":"n",
      "40":"n",
      "41":"n",
      "42":"n",
      "43":"n",
      "44":"n",
      "45":"n",
      "46":"n",
      "47":"n",
      "48":"n",
      "49":"n",
      "50":"n",
      "51":"n",
      "52":"n",
      "53":"n",
      "54":"n",
      "55":"n",
      "56":"n",
      "57":"n",
      "58":"n",
      "59":"n",
      "60":"n",
      "61":"n",
      "62":"n",
      "63":"n",
      "64":"n",
      "65":"n",
      "66":"n",
      "67":"n",
      "68":"n",
      "69":"n",
      "70":"n",
      "71":"n",
      "72":"n",
      "73":"n",
      "74":"n",
      "75":"n",
      "76":"n",
      "77":"n",
      "78":"n",
      "79":"n",
      "80":"n",
      "81":"n",
      "83":"n",
      "84":"n",
      "85":"n",
      "86":"n",
      "87":"n",
      "88":"n",
      "89":"n",
      "90":"n",
      "91":"n",
      "92":"n",
      "93":"n",
      "94":"n",
      "95":"n",
      "96":"n",
      "97":"n",
      "98":"n",
      "99":"n",
      "100":"n",
      "101":"n",
      "102":"n",
      "103":"n",
      "104":"n",
      "105":"n",
      "106":"n",
      "107":"n",
      "108":"n",
      "109":"n",
      "110":"n",
      "111":"n",
      "112":"n",
      "113":"n",
      "114":"n",
      "115":"n",
      "116":"n",
      "117":"n",
      "118":"n",
      "119":"n",
      "120":"n",
      "121":"n"
    },
    "safari":{
      "3.1":"n",
      "3.2":"n",
      "4":"n",
      "5":"y #1",
      "5.1":"y #1",
      "6":"y",
      "6.1":"y",
      "7":"y",
      "7.1":"y",
      "8":"y",
      "9":"y",
      "9.1":"y",
      "10":"y",
      "10.1":"y",
      "11":"y",
      "11.1":"y",
      "12":"y",
      "12.1":"y",
      "13":"y",
      "13.1":"y",
      "14":"y",
      "14.1":"y",
      "15":"y",
      "15.1":"y",
      "15.2-15.3":"y",
      "15.4":"y",
      "15.5":"y",
      "15.6":"y",
      "16.0":"y",
      "16.1":"y",
      "16.2":"y",
      "16.3":"y",
      "16.4":"y",
      "16.5":"y",
      "16.6":"y",
      "17.0":"y",
      "17.1":"y",
      "TP":"y"
    },
    "opera":{
      "9":"n",
      "9.5-9.6":"n",
      "10.0-10.1":"n",
      "10.5":"n",
      "10.6":"n",
      "11":"n",
      "11.1":"n",
      "11.5":"n",
      "11.6":"n",
      "12":"n",
      "12.1":"n",
      "15":"n",
      "16":"n",
      "17":"n",
      "18":"n",
      "19":"n",
      "20":"n",
      "21":"n",
      "22":"n",
      "23":"n",
      "24":"n",
      "25":"n",
      "26":"n",
      "27":"n",
      "28":"n",
      "29":"n",
      "30":"n",
      "31":"n",
      "32":"n",
      "33":"n",
      "34":"n",
      "35":"n",
      "36":"n",
      "37":"n",
      "38":"n",
      "39":"n",
      "40":"n",
      "41":"n",
      "42":"n",
      "43":"n",
      "44":"n",
      "45":"n",
      "46":"n",
      "47":"n",
      "48":"n",
      "49":"n",
      "50":"n",
      "51":"n",
      "52":"n",
      "53":"n",
      "54":"n",
      "55":"n",
      "56":"n",
      "57":"n",
      "58":"n",
      "60":"n",
      "62":"n",
      "63":"n",
      "64":"n",
      "65":"n",
      "66":"n",
      "67":"n",
      "68":"n",
      "69":"n",
      "70":"n",
      "71":"n",
      "72":"n",
      "73":"n",
      "74":"n",
      "75":"n",
      "76":"n",
      "77":"n",
      "78":"n",
      "79":"n",
      "80":"n",
      "81":"n",
      "82":"n",
      "83":"n",
      "84":"n",
      "85":"n",
      "86":"n",
      "87":"n",
      "88":"n",
      "89":"n",
      "90":"n",
      "91":"n",
      "92":"n",
      "93":"n",
      "94":"n",
      "95":"n",
      "96":"n",
      "97":"n",
      "98":"n",
      "99":"n",
      "100":"n",
      "101":"n",
      "102":"n",
      "103":"n"
    },
    "ios_saf":{
      "3.2":"n",
      "4.0-4.1":"n",
      "4.2-4.3":"n",
      "5.0-5.1":"y",
      "6.0-6.1":"y",
      "7.0-7.1":"y",
      "8":"y",
      "8.1-8.4":"y",
      "9.0-9.2":"y",
      "9.3":"y",
      "10.0-10.2":"y",
      "10.3":"y",
      "11.0-11.2":"y",
      "11.3-11.4":"y",
      "12.0-12.1":"y",
      "12.2-12.5":"y",
      "13.0-13.1":"y",
      "13.2":"y",
      "13.3":"y",
      "13.4-13.7":"y",
      "14.0-14.4":"y",
      "14.5-14.8":"y",
      "15.0-15.1":"y",
      "15.2-15.3":"y",
      "15.4":"y",
      "15.5":"y",
      "15.6-15.7":"y",
      "16.0":"y",
      "16.1":"y",
      "16.2":"y",
      "16.3":"y",
      "16.4":"y",
      "16.5":"y",
      "16.6":"y",
      "17.0":"y",
      "17.1":"y"
    },
    "op_mini":{
      "all":"n"
    },
    "android":{
      "2.1":"n",
      "2.2":"n",
      "2.3":"n",
      "3":"n",
      "4":"n",
      "4.1":"n",
      "4.2-4.3":"n",
      "4.4":"n",
      "4.4.3-4.4.4":"n",
      "118":"n"
    },
    "bb":{
      "7":"n",
      "10":"n"
    },
    "op_mob":{
      "10":"n",
      "11":"n",
      "11.1":"n",
      "11.5":"n",
      "12":"n",
      "12.1":"n",
      "73":"n"
    },
    "and_chr":{
      "118":"n"
    },
    "and_ff":{
      "118":"n"
    },
    "ie_mob":{
      "10":"n",
      "11":"n"
    },
    "and_uc":{
      "15.5":"n"
    },
    "samsung":{
      "4":"n",
      "5.0-5.4":"n",
      "6.2-6.4":"n",
      "7.2-7.4":"n",
      "8.2":"n",
      "9.2":"n",
      "10.1":"n",
      "11.1-11.2":"n",
      "12.0":"n",
      "13.0":"n",
      "14.0":"n",
      "15.0":"n",
      "16.0":"n",
      "17.0":"n",
      "18.0":"n",
      "19.0":"n",
      "20":"n",
      "21":"n",
      "22":"n"
    },
    "and_qq":{
      "13.1":"n"
    },
    "baidu":{
      "13.18":"n"
    },
    "kaios":{
      "2.5":"n",
      "3.0-3.1":"n"
    }
  },
  "notes":"",
  "notes_by_num":{
    "1":"Not supported by Safari for Windows"
  },
  "usage_perc_y":19.61,
  "usage_perc_a":0,
  "ucprefix":false,
  "parent":"",
  "keywords":"jp2,jpeg2000,jpeg 2000,jpg2000",
  "ie_id":"",
  "chrome_id":"",
  "firefox_id":"",
  "webkit_id":"",
  "shown":true
}
