{
  "title":"Password Rules",
  "description":"Input attribute to define the password requirements",
  "spec":"https://github.com/whatwg/html/issues/3518",
  "status":"ls",
  "links":[
    {
      "url":"https://webkit.org/blog/8327/safari-technology-preview-58-with-safari-12-features-is-now-available/",
      "title":"Safari Technology Preview 58"
    },
    {
      "url":"https://developer.apple.com/password-rules/",
      "title":"Password rules validation tool"
    },
    {
      "url":"https://developer.apple.com/documentation/security/password_autofill/customizing_password_autofill_rules",
      "title":"Apple Developer: Customizing Password AutoFill Rules"
    }
  ],
  "bugs":[
    
  ],
  "categories":[
    "HTML5",
    "JS API",
    "Security"
  ],
  "stats":{
    "ie":{
      "5.5":"n",
      "6":"n",
      "7":"n",
      "8":"n",
      "9":"n",
      "10":"n",
      "11":"n"
    },
    "edge":{
      "12":"n",
      "13":"n",
      "14":"n",
      "15":"n",
      "16":"n",
      "17":"n",
      "18":"n",
      "79":"u",
      "80":"u",
      "81":"u",
      "83":"u",
      "84":"u",
      "85":"u",
      "86":"u",
      "87":"u",
      "88":"u",
      "89":"u",
      "90":"u",
      "91":"u",
      "92":"u",
      "93":"u",
      "94":"u",
      "95":"u",
      "96":"u",
      "97":"u",
      "98":"u",
      "99":"u",
      "100":"u",
      "101":"u",
      "102":"u",
      "103":"u",
      "104":"u",
      "105":"u",
      "106":"u",
      "107":"u",
      "108":"u",
      "109":"u",
      "110":"u",
      "111":"u",
      "112":"u",
      "113":"u",
      "114":"u",
      "115":"u",
      "116":"u",
      "117":"u",
      "118":"u"
    },
    "firefox":{
      "2":"n",
      "3":"n",
      "3.5":"n",
      "3.6":"n",
      "4":"n",
      "5":"n",
      "6":"n",
      "7":"n",
      "8":"n",
      "9":"n",
      "10":"n",
      "11":"n",
      "12":"n",
      "13":"n",
      "14":"n",
      "15":"n",
      "16":"n",
      "17":"n",
      "18":"n",
      "19":"n",
      "20":"n",
      "21":"n",
      "22":"n",
      "23":"n",
      "24":"n",
      "25":"n",
      "26":"n",
      "27":"n",
      "28":"n",
      "29":"n",
      "30":"n",
      "31":"n",
      "32":"n",
      "33":"n",
      "34":"n",
      "35":"n",
      "36":"n",
      "37":"n",
      "38":"n",
      "39":"n",
      "40":"n",
      "41":"n",
      "42":"n",
      "43":"n",
      "44":"n",
      "45":"n",
      "46":"n",
      "47":"n",
      "48":"n",
      "49":"n",
      "50":"n",
      "51":"n",
      "52":"n",
      "53":"n",
      "54":"n",
      "55":"n",
      "56":"n",
      "57":"n",
      "58":"n",
      "59":"n",
      "60":"n",
      "61":"n",
      "62":"n",
      "63":"n",
      "64":"n",
      "65":"n",
      "66":"n",
      "67":"n",
      "68":"n",
      "69":"n",
      "70":"n",
      "71":"n",
      "72":"n",
      "73":"n",
      "74":"n",
      "75":"n",
      "76":"n",
      "77":"n",
      "78":"n",
      "79":"n",
      "80":"n",
      "81":"n",
      "82":"n",
      "83":"n",
      "84":"n",
      "85":"n",
      "86":"n",
      "87":"n",
      "88":"n",
      "89":"n",
      "90":"n",
      "91":"n",
      "92":"n",
      "93":"n",
      "94":"n",
      "95":"n",
      "96":"n",
      "97":"n",
      "98":"n",
      "99":"n",
      "100":"n",
      "101":"n",
      "102":"n",
      "103":"n",
      "104":"n",
      "105":"n",
      "106":"n",
      "107":"n",
      "108":"n",
      "109":"n",
      "110":"n",
      "111":"n",
      "112":"n",
      "113":"n",
      "114":"n",
      "115":"n",
      "116":"n",
      "117":"n",
      "118":"n",
      "119":"u",
      "120":"u",
      "121":"u"
    },
    "chrome":{
      "4":"n",
      "5":"n",
      "6":"n",
      "7":"n",
      "8":"n",
      "9":"n",
      "10":"n",
      "11":"n",
      "12":"n",
      "13":"n",
      "14":"n",
      "15":"n",
      "16":"n",
      "17":"n",
      "18":"n",
      "19":"n",
      "20":"n",
      "21":"n",
      "22":"n",
      "23":"n",
      "24":"n",
      "25":"n",
      "26":"n",
      "27":"n",
      "28":"n",
      "29":"n",
      "30":"n",
      "31":"n",
      "32":"n",
      "33":"n",
      "34":"n",
      "35":"n",
      "36":"n",
      "37":"n",
      "38":"n",
      "39":"n",
      "40":"n",
      "41":"n",
      "42":"n",
      "43":"n",
      "44":"n",
      "45":"n",
      "46":"n",
      "47":"n",
      "48":"n",
      "49":"n",
      "50":"n",
      "51":"n",
      "52":"n",
      "53":"n",
      "54":"n",
      "55":"n",
      "56":"n",
      "57":"n",
      "58":"n",
      "59":"n",
      "60":"n",
      "61":"n",
      "62":"n",
      "63":"n",
      "64":"n",
      "65":"n",
      "66":"n",
      "67":"n",
      "68":"n",
      "69":"n",
      "70":"n",
      "71":"n",
      "72":"n",
      "73":"n",
      "74":"n",
      "75":"n",
      "76":"n",
      "77":"n",
      "78":"n",
      "79":"n",
      "80":"n",
      "81":"n",
      "83":"n",
      "84":"n",
      "85":"n",
      "86":"n",
      "87":"n",
      "88":"n",
      "89":"n",
      "90":"n",
      "91":"n",
      "92":"n",
      "93":"n",
      "94":"n",
      "95":"n",
      "96":"n",
      "97":"n",
      "98":"n",
      "99":"n",
      "100":"n",
      "101":"n",
      "102":"n",
      "103":"n",
      "104":"n",
      "105":"n",
      "106":"n",
      "107":"n",
      "108":"n",
      "109":"n",
      "110":"n",
      "111":"n",
      "112":"n",
      "113":"n",
      "114":"n",
      "115":"n",
      "116":"n",
      "117":"n",
      "118":"n",
      "119":"u",
      "120":"u",
      "121":"u"
    },
    "safari":{
      "3.1":"n",
      "3.2":"n",
      "4":"n",
      "5":"n",
      "5.1":"n",
      "6":"n",
      "6.1":"n",
      "7":"n",
      "7.1":"n",
      "8":"n",
      "9":"n",
      "9.1":"n",
      "10":"n",
      "10.1":"n",
      "11":"n",
      "11.1":"n",
      "12":"y",
      "12.1":"y",
      "13":"y",
      "13.1":"u",
      "14":"u",
      "14.1":"u",
      "15":"u",
      "15.1":"u",
      "15.2-15.3":"u",
      "15.4":"u",
      "15.5":"u",
      "15.6":"u",
      "16.0":"u",
      "16.1":"u",
      "16.2":"u",
      "16.3":"u",
      "16.4":"u",
      "16.5":"u",
      "16.6":"u",
      "17.0":"u",
      "17.1":"u",
      "TP":"u"
    },
    "opera":{
      "9":"n",
      "9.5-9.6":"n",
      "10.0-10.1":"n",
      "10.5":"n",
      "10.6":"n",
      "11":"n",
      "11.1":"n",
      "11.5":"n",
      "11.6":"n",
      "12":"n",
      "12.1":"n",
      "15":"n",
      "16":"n",
      "17":"n",
      "18":"n",
      "19":"n",
      "20":"n",
      "21":"n",
      "22":"n",
      "23":"n",
      "24":"n",
      "25":"n",
      "26":"n",
      "27":"n",
      "28":"n",
      "29":"n",
      "30":"n",
      "31":"n",
      "32":"n",
      "33":"n",
      "34":"n",
      "35":"n",
      "36":"n",
      "37":"n",
      "38":"n",
      "39":"n",
      "40":"n",
      "41":"n",
      "42":"n",
      "43":"n",
      "44":"n",
      "45":"n",
      "46":"n",
      "47":"n",
      "48":"n",
      "49":"n",
      "50":"n",
      "51":"n",
      "52":"n",
      "53":"u",
      "54":"u",
      "55":"u",
      "56":"u",
      "57":"u",
      "58":"u",
      "60":"u",
      "62":"u",
      "63":"u",
      "64":"u",
      "65":"u",
      "66":"u",
      "67":"u",
      "68":"u",
      "69":"u",
      "70":"u",
      "71":"u",
      "72":"u",
      "73":"u",
      "74":"u",
      "75":"u",
      "76":"u",
      "77":"u",
      "78":"u",
      "79":"u",
      "80":"u",
      "81":"u",
      "82":"u",
      "83":"u",
      "84":"u",
      "85":"u",
      "86":"u",
      "87":"u",
      "88":"u",
      "89":"u",
      "90":"u",
      "91":"u",
      "92":"u",
      "93":"u",
      "94":"u",
      "95":"u",
      "96":"u",
      "97":"u",
      "98":"u",
      "99":"u",
      "100":"u",
      "101":"u",
      "102":"u",
      "103":"u"
    },
    "ios_saf":{
      "3.2":"n",
      "4.0-4.1":"n",
      "4.2-4.3":"n",
      "5.0-5.1":"n",
      "6.0-6.1":"n",
      "7.0-7.1":"n",
      "8":"n",
      "8.1-8.4":"n",
      "9.0-9.2":"n",
      "9.3":"n",
      "10.0-10.2":"n",
      "10.3":"n",
      "11.0-11.2":"n",
      "11.3-11.4":"n",
      "12.0-12.1":"n",
      "12.2-12.5":"n",
      "13.0-13.1":"n",
      "13.2":"n",
      "13.3":"n",
      "13.4-13.7":"n",
      "14.0-14.4":"n",
      "14.5-14.8":"n",
      "15.0-15.1":"n",
      "15.2-15.3":"n",
      "15.4":"n",
      "15.5":"n",
      "15.6-15.7":"n",
      "16.0":"n",
      "16.1":"n",
      "16.2":"n",
      "16.3":"n",
      "16.4":"n",
      "16.5":"n",
      "16.6":"n",
      "17.0":"n",
      "17.1":"n"
    },
    "op_mini":{
      "all":"u"
    },
    "android":{
      "2.1":"n",
      "2.2":"n",
      "2.3":"n",
      "3":"n",
      "4":"n",
      "4.1":"n",
      "4.2-4.3":"n",
      "4.4":"n",
      "4.4.3-4.4.4":"n",
      "118":"u"
    },
    "bb":{
      "7":"n",
      "10":"u"
    },
    "op_mob":{
      "10":"n",
      "11":"n",
      "11.1":"n",
      "11.5":"n",
      "12":"n",
      "12.1":"n",
      "73":"u"
    },
    "and_chr":{
      "118":"u"
    },
    "and_ff":{
      "118":"u"
    },
    "ie_mob":{
      "10":"n",
      "11":"u"
    },
    "and_uc":{
      "15.5":"u"
    },
    "samsung":{
      "4":"n",
      "5.0-5.4":"n",
      "6.2-6.4":"n",
      "7.2-7.4":"u",
      "8.2":"u",
      "9.2":"u",
      "10.1":"u",
      "11.1-11.2":"u",
      "12.0":"u",
      "13.0":"u",
      "14.0":"u",
      "15.0":"u",
      "16.0":"u",
      "17.0":"u",
      "18.0":"u",
      "19.0":"u",
      "20":"u",
      "21":"u",
      "22":"u"
    },
    "and_qq":{
      "13.1":"u"
    },
    "baidu":{
      "13.18":"u"
    },
    "kaios":{
      "2.5":"n",
      "3.0-3.1":"n"
    }
  },
  "notes":"",
  "notes_by_num":{
    
  },
  "usage_perc_y":0.05,
  "usage_perc_a":0,
  "ucprefix":false,
  "parent":"input",
  "keywords":"password,password manager",
  "ie_id":"",
  "chrome_id":"",
  "firefox_id":"",
  "webkit_id":"",
  "shown":false
}
