{
  "title":"Speech Synthesis API",
  "description":"A web API for controlling a text-to-speech output.",
  "spec":"https://w3c.github.io/speech-api/speechapi.html#tts-section",
  "status":"unoff",
  "links":[
    {
      "url":"https://www.sitepoint.com/talking-web-pages-and-the-speech-synthesis-api/",
      "title":"SitePoint article"
    },
    {
      "url":"https://www.audero.it/demo/speech-synthesis-api-demo.html",
      "title":"Demo"
    },
    {
      "url":"https://zenorocha.github.io/voice-elements/",
      "title":"Advanced demo and resource"
    },
    {
      "url":"https://developer.mozilla.org//docs/Web/API/SpeechSynthesis",
      "title":"MDN article"
    },
    {
      "url":"https://developers.google.com/web/updates/2014/01/Web-apps-that-talk-Introduction-to-the-Speech-Synthesis-API",
      "title":"Google Developers article"
    }
  ],
  "bugs":[
    {
      "description":"[Chrome issue 679437: Speech Synthesis stops abruptly after about 15 seconds](https://bugs.chromium.org/p/chromium/issues/detail?id=679437)"
    }
  ],
  "categories":[
    "JS API"
  ],
  "stats":{
    "ie":{
      "5.5":"n",
      "6":"n",
      "7":"n",
      "8":"n",
      "9":"n",
      "10":"n",
      "11":"n"
    },
    "edge":{
      "12":"n",
      "13":"n",
      "14":"y",
      "15":"y",
      "16":"y",
      "17":"y",
      "18":"y",
      "79":"y #2",
      "80":"y #2",
      "81":"y #2",
      "83":"y #2",
      "84":"y #2",
      "85":"y #2",
      "86":"y #2",
      "87":"y #2",
      "88":"y #2",
      "89":"y #2",
      "90":"y #2",
      "91":"y #2",
      "92":"y #2",
      "93":"y #2",
      "94":"y #2",
      "95":"y #2",
      "96":"y #2",
      "97":"y #2",
      "98":"y #2",
      "99":"y #2",
      "100":"y #2",
      "101":"y #2",
      "102":"y #2",
      "103":"y #2",
      "104":"y #2",
      "105":"y #2",
      "106":"y #2",
      "107":"y #2",
      "108":"y #2",
      "109":"y #2",
      "110":"y #2",
      "111":"y #2",
      "112":"y #2",
      "113":"y #2",
      "114":"y #2",
      "115":"y #2",
      "116":"y #2",
      "117":"y #2",
      "118":"y #2"
    },
    "firefox":{
      "2":"n",
      "3":"n",
      "3.5":"n",
      "3.6":"n",
      "4":"n",
      "5":"n",
      "6":"n",
      "7":"n",
      "8":"n",
      "9":"n",
      "10":"n",
      "11":"n",
      "12":"n",
      "13":"n",
      "14":"n",
      "15":"n",
      "16":"n",
      "17":"n",
      "18":"n",
      "19":"n",
      "20":"n",
      "21":"n",
      "22":"n",
      "23":"n",
      "24":"n",
      "25":"n",
      "26":"n",
      "27":"n",
      "28":"n",
      "29":"n",
      "30":"n",
      "31":"n d #1",
      "32":"n d #1",
      "33":"n d #1",
      "34":"n d #1",
      "35":"n d #1",
      "36":"n d #1",
      "37":"n d #1",
      "38":"n d #1",
      "39":"n d #1",
      "40":"n d #1",
      "41":"n d #1",
      "42":"n d #1",
      "43":"n d #1",
      "44":"n d #1",
      "45":"n d #1",
      "46":"n d #1",
      "47":"n d #1",
      "48":"n d #1",
      "49":"y",
      "50":"y",
      "51":"y",
      "52":"y",
      "53":"y",
      "54":"y",
      "55":"y",
      "56":"y",
      "57":"y",
      "58":"y",
      "59":"y",
      "60":"y",
      "61":"y",
      "62":"y",
      "63":"y",
      "64":"y",
      "65":"y",
      "66":"y",
      "67":"y",
      "68":"y",
      "69":"y",
      "70":"y",
      "71":"y",
      "72":"y",
      "73":"y",
      "74":"y",
      "75":"y",
      "76":"y",
      "77":"y",
      "78":"y",
      "79":"y",
      "80":"y",
      "81":"y",
      "82":"y",
      "83":"y",
      "84":"y",
      "85":"y",
      "86":"y",
      "87":"y",
      "88":"y",
      "89":"y",
      "90":"y",
      "91":"y",
      "92":"y",
      "93":"y",
      "94":"y",
      "95":"y",
      "96":"y",
      "97":"y",
      "98":"y",
      "99":"y",
      "100":"y",
      "101":"y",
      "102":"y",
      "103":"y",
      "104":"y",
      "105":"y",
      "106":"y",
      "107":"y",
      "108":"y",
      "109":"y",
      "110":"y",
      "111":"y",
      "112":"y",
      "113":"y",
      "114":"y",
      "115":"y",
      "116":"y",
      "117":"y",
      "118":"y",
      "119":"y",
      "120":"y",
      "121":"y"
    },
    "chrome":{
      "4":"n",
      "5":"n",
      "6":"n",
      "7":"n",
      "8":"n",
      "9":"n",
      "10":"n",
      "11":"n",
      "12":"n",
      "13":"n",
      "14":"n",
      "15":"n",
      "16":"n",
      "17":"n",
      "18":"n",
      "19":"n",
      "20":"n",
      "21":"n",
      "22":"n",
      "23":"n",
      "24":"n",
      "25":"n",
      "26":"n",
      "27":"n",
      "28":"n",
      "29":"n",
      "30":"n",
      "31":"n",
      "32":"n",
      "33":"y",
      "34":"y",
      "35":"y",
      "36":"y",
      "37":"y",
      "38":"y",
      "39":"y",
      "40":"y",
      "41":"y",
      "42":"y",
      "43":"y",
      "44":"y",
      "45":"y",
      "46":"y",
      "47":"y",
      "48":"y",
      "49":"y",
      "50":"y",
      "51":"y",
      "52":"y",
      "53":"y",
      "54":"y",
      "55":"y #2",
      "56":"y #2",
      "57":"y #2",
      "58":"y #2",
      "59":"y #2",
      "60":"y #2",
      "61":"y #2",
      "62":"y #2",
      "63":"y #2",
      "64":"y #2",
      "65":"y #2",
      "66":"y #2",
      "67":"y #2",
      "68":"y #2",
      "69":"y #2",
      "70":"y #2",
      "71":"y #2",
      "72":"y #2",
      "73":"y #2",
      "74":"y #2",
      "75":"y #2",
      "76":"y #2",
      "77":"y #2",
      "78":"y #2",
      "79":"y #2",
      "80":"y #2",
      "81":"y #2",
      "83":"y #2",
      "84":"y #2",
      "85":"y #2",
      "86":"y #2",
      "87":"y #2",
      "88":"y #2",
      "89":"y #2",
      "90":"y #2",
      "91":"y #2",
      "92":"y #2",
      "93":"y #2",
      "94":"y #2",
      "95":"y #2",
      "96":"y #2",
      "97":"y #2",
      "98":"y #2",
      "99":"y #2",
      "100":"y #2",
      "101":"y #2",
      "102":"y #2",
      "103":"y #2",
      "104":"y #2",
      "105":"y #2",
      "106":"y #2",
      "107":"y #2",
      "108":"y #2",
      "109":"y #2",
      "110":"y #2",
      "111":"y #2",
      "112":"y #2",
      "113":"y #2",
      "114":"y #2",
      "115":"y #2",
      "116":"y #2",
      "117":"y #2",
      "118":"y #2",
      "119":"y #2",
      "120":"y #2",
      "121":"y #2"
    },
    "safari":{
      "3.1":"n",
      "3.2":"n",
      "4":"n",
      "5":"n",
      "5.1":"n",
      "6":"n",
      "6.1":"n",
      "7":"y",
      "7.1":"y",
      "8":"y",
      "9":"y",
      "9.1":"y",
      "10":"y",
      "10.1":"y",
      "11":"y",
      "11.1":"y",
      "12":"y",
      "12.1":"y",
      "13":"y",
      "13.1":"y",
      "14":"y",
      "14.1":"y",
      "15":"y",
      "15.1":"y",
      "15.2-15.3":"y",
      "15.4":"y",
      "15.5":"y",
      "15.6":"y",
      "16.0":"y",
      "16.1":"y",
      "16.2":"y",
      "16.3":"y",
      "16.4":"y",
      "16.5":"y",
      "16.6":"y",
      "17.0":"y",
      "17.1":"y",
      "TP":"y"
    },
    "opera":{
      "9":"n",
      "9.5-9.6":"n",
      "10.0-10.1":"n",
      "10.5":"n",
      "10.6":"n",
      "11":"n",
      "11.1":"n",
      "11.5":"n",
      "11.6":"n",
      "12":"n",
      "12.1":"n",
      "15":"n",
      "16":"n",
      "17":"n",
      "18":"n",
      "19":"n",
      "20":"n",
      "21":"n",
      "22":"n",
      "23":"n",
      "24":"n",
      "25":"n",
      "26":"n",
      "27":"y",
      "28":"y",
      "29":"y",
      "30":"y",
      "31":"y",
      "32":"y",
      "33":"y",
      "34":"y",
      "35":"y",
      "36":"y",
      "37":"y",
      "38":"y",
      "39":"y",
      "40":"y",
      "41":"y",
      "42":"y",
      "43":"y",
      "44":"y",
      "45":"y",
      "46":"y",
      "47":"y",
      "48":"y",
      "49":"y",
      "50":"y",
      "51":"y",
      "52":"y",
      "53":"y",
      "54":"y",
      "55":"y",
      "56":"y",
      "57":"y",
      "58":"y",
      "60":"y",
      "62":"y",
      "63":"y",
      "64":"y #2",
      "65":"y #2",
      "66":"y #2",
      "67":"y #2",
      "68":"y #2",
      "69":"y #2",
      "70":"y #2",
      "71":"y #2",
      "72":"y #2",
      "73":"y #2",
      "74":"y #2",
      "75":"y #2",
      "76":"y #2",
      "77":"y #2",
      "78":"y #2",
      "79":"y #2",
      "80":"y #2",
      "81":"y #2",
      "82":"y #2",
      "83":"y #2",
      "84":"y #2",
      "85":"y #2",
      "86":"y #2",
      "87":"y #2",
      "88":"y #2",
      "89":"y #2",
      "90":"y #2",
      "91":"y #2",
      "92":"y #2",
      "93":"y #2",
      "94":"y #2",
      "95":"y #2",
      "96":"y #2",
      "97":"y #2",
      "98":"y #2",
      "99":"y #2",
      "100":"y #2",
      "101":"y #2",
      "102":"y #2",
      "103":"y #2"
    },
    "ios_saf":{
      "3.2":"n",
      "4.0-4.1":"n",
      "4.2-4.3":"n",
      "5.0-5.1":"n",
      "6.0-6.1":"n",
      "7.0-7.1":"y",
      "8":"y",
      "8.1-8.4":"y",
      "9.0-9.2":"y",
      "9.3":"y",
      "10.0-10.2":"y",
      "10.3":"y",
      "11.0-11.2":"y",
      "11.3-11.4":"y",
      "12.0-12.1":"y",
      "12.2-12.5":"y",
      "13.0-13.1":"y",
      "13.2":"y",
      "13.3":"y",
      "13.4-13.7":"y",
      "14.0-14.4":"y",
      "14.5-14.8":"y",
      "15.0-15.1":"y",
      "15.2-15.3":"y",
      "15.4":"y",
      "15.5":"y",
      "15.6-15.7":"y",
      "16.0":"y",
      "16.1":"y",
      "16.2":"y",
      "16.3":"y",
      "16.4":"y",
      "16.5":"y",
      "16.6":"y",
      "17.0":"y",
      "17.1":"y"
    },
    "op_mini":{
      "all":"n"
    },
    "android":{
      "2.1":"n",
      "2.2":"n",
      "2.3":"n",
      "3":"n",
      "4":"n",
      "4.1":"n",
      "4.2-4.3":"n",
      "4.4":"n",
      "4.4.3-4.4.4":"n",
      "118":"n"
    },
    "bb":{
      "7":"n",
      "10":"n"
    },
    "op_mob":{
      "10":"n",
      "11":"n",
      "11.1":"n",
      "11.5":"n",
      "12":"n",
      "12.1":"n",
      "73":"n"
    },
    "and_chr":{
      "118":"y"
    },
    "and_ff":{
      "118":"y"
    },
    "ie_mob":{
      "10":"n",
      "11":"n"
    },
    "and_uc":{
      "15.5":"n"
    },
    "samsung":{
      "4":"n",
      "5.0-5.4":"y",
      "6.2-6.4":"y",
      "7.2-7.4":"y",
      "8.2":"y",
      "9.2":"y",
      "10.1":"y",
      "11.1-11.2":"y",
      "12.0":"y",
      "13.0":"y",
      "14.0":"y",
      "15.0":"y",
      "16.0":"y",
      "17.0":"y",
      "18.0":"y",
      "19.0":"y",
      "20":"y",
      "21":"y",
      "22":"y"
    },
    "and_qq":{
      "13.1":"y"
    },
    "baidu":{
      "13.18":"n"
    },
    "kaios":{
      "2.5":"y",
      "3.0-3.1":"y"
    }
  },
  "notes":"Samsung Internet for GearVR: In Development, release based on Chromium m53 due Q1/2017",
  "notes_by_num":{
    "1":"Can be enabled in Firefox using the `media.webspeech.synth.enabled` about:config flag.",
    "2":"Speech Synthesis in Chrome since version 55 stops playback after about 15 seconds on Windows 7 & 10, and Ubuntu 14.04, possibly other platforms"
  },
  "usage_perc_y":95.48,
  "usage_perc_a":0,
  "ucprefix":false,
  "parent":"web-speech",
  "keywords":"speech,synthesis,speechSynthesis,TTS,SpeechSynthesisUtterance,",
  "ie_id":"webspeechapisynthesis",
  "chrome_id":"4782875580825600",
  "firefox_id":"webspeech-synthesis",
  "webkit_id":"",
  "shown":true
}
