{
  "title":"TLS 1.1",
  "description":"Version 1.1 of the Transport Layer Security (TLS) protocol.",
  "spec":"https://tools.ietf.org/html/rfc4346",
  "status":"other",
  "links":[
    {
      "url":"https://en.wikipedia.org/wiki/Transport_Layer_Security#TLS_1.1",
      "title":"Wikipedia article about TLS 1.1"
    },
    {
      "url":"https://security.googleblog.com/2018/10/modernizing-transport-security.html",
      "title":"Modernizing Transport Security - Google Security Blog"
    },
    {
      "url":"https://blogs.windows.com/msedgedev/2018/10/15/modernizing-tls-edge-ie11/",
      "title":"Modernizing TLS connections in Microsoft Edge and Internet Explorer 11 - Microsoft Windows Blog"
    },
    {
      "url":"https://blog.mozilla.org/security/2018/10/15/removing-old-versions-of-tls/",
      "title":"Removing Old Versions of TLS - Mozilla Security Blog"
    },
    {
      "url":"https://webkit.org/blog/8462/deprecation-of-legacy-tls-1-0-and-1-1-versions/",
      "title":"Deprecation of Legacy TLS 1.0 and 1.1 Versions - WebKit Blog"
    }
  ],
  "bugs":[
    
  ],
  "categories":[
    "Security"
  ],
  "stats":{
    "ie":{
      "5.5":"n",
      "6":"n",
      "7":"n",
      "8":"n d",
      "9":"n d",
      "10":"n d",
      "11":"y"
    },
    "edge":{
      "12":"y",
      "13":"y",
      "14":"y",
      "15":"y",
      "16":"y",
      "17":"y",
      "18":"y",
      "79":"y",
      "80":"y",
      "81":"y",
      "83":"y",
      "84":"y",
      "85":"y",
      "86":"y",
      "87":"y",
      "88":"y",
      "89":"y",
      "90":"y",
      "91":"y",
      "92":"y",
      "93":"y",
      "94":"y",
      "95":"y",
      "96":"y",
      "97":"y",
      "98":"y",
      "99":"y",
      "100":"y",
      "101":"y",
      "102":"y",
      "103":"y",
      "104":"y",
      "105":"y",
      "106":"y",
      "107":"y",
      "108":"y",
      "109":"y",
      "110":"y",
      "111":"y",
      "112":"y",
      "113":"y",
      "114":"y",
      "115":"y",
      "116":"y",
      "117":"y",
      "118":"y"
    },
    "firefox":{
      "2":"n",
      "3":"n",
      "3.5":"n",
      "3.6":"n",
      "4":"n",
      "5":"n",
      "6":"n",
      "7":"n",
      "8":"n",
      "9":"n",
      "10":"n",
      "11":"n",
      "12":"n",
      "13":"n",
      "14":"n",
      "15":"n",
      "16":"n",
      "17":"n",
      "18":"n",
      "19":"n",
      "20":"n",
      "21":"n",
      "22":"n",
      "23":"n d",
      "24":"y",
      "25":"y",
      "26":"y",
      "27":"y",
      "28":"y",
      "29":"y",
      "30":"y",
      "31":"y",
      "32":"y",
      "33":"y",
      "34":"y",
      "35":"y",
      "36":"y",
      "37":"y",
      "38":"y",
      "39":"y",
      "40":"y",
      "41":"y",
      "42":"y",
      "43":"y",
      "44":"y",
      "45":"y",
      "46":"y",
      "47":"y",
      "48":"y",
      "49":"y",
      "50":"y",
      "51":"y",
      "52":"y",
      "53":"y",
      "54":"y",
      "55":"y",
      "56":"y",
      "57":"y",
      "58":"y",
      "59":"y",
      "60":"y",
      "61":"y",
      "62":"y",
      "63":"y",
      "64":"y",
      "65":"y",
      "66":"y",
      "67":"y",
      "68":"y #1",
      "69":"y #1",
      "70":"y #1",
      "71":"y #1",
      "72":"y #1",
      "73":"y #1",
      "74":"y #1",
      "75":"y #1",
      "76":"y #1",
      "77":"y #1",
      "78":"a #1 #2",
      "79":"a #1 #2",
      "80":"a #1 #2",
      "81":"a #1 #2",
      "82":"a #1 #2",
      "83":"a #1 #2",
      "84":"a #1 #2",
      "85":"a #1 #2",
      "86":"a #1 #2",
      "87":"a #1 #2",
      "88":"a #1 #2",
      "89":"a #1 #2",
      "90":"a #1 #2",
      "91":"a #1 #2",
      "92":"a #1 #2",
      "93":"a #1 #2",
      "94":"a #1 #2",
      "95":"a #1 #2",
      "96":"a #1 #2",
      "97":"a #1 #2",
      "98":"a #1 #2",
      "99":"a #1 #2",
      "100":"a #1 #2",
      "101":"a #1 #2",
      "102":"a #1 #2",
      "103":"a #1 #2",
      "104":"a #1 #2",
      "105":"a #1 #2",
      "106":"a #1 #2",
      "107":"a #1 #2",
      "108":"a #1 #2",
      "109":"a #1 #2",
      "110":"a #1 #2",
      "111":"a #1 #2",
      "112":"a #1 #2",
      "113":"a #1 #2",
      "114":"a #1 #2",
      "115":"a #1 #2",
      "116":"a #1 #2",
      "117":"a #1 #2",
      "118":"a #1 #2",
      "119":"a #1 #2",
      "120":"a #1 #2",
      "121":"a #1 #2"
    },
    "chrome":{
      "4":"n",
      "5":"n",
      "6":"n",
      "7":"n",
      "8":"n",
      "9":"n",
      "10":"n",
      "11":"n",
      "12":"n",
      "13":"n",
      "14":"n",
      "15":"n",
      "16":"n",
      "17":"n",
      "18":"n",
      "19":"n",
      "20":"n",
      "21":"n",
      "22":"y",
      "23":"y",
      "24":"y",
      "25":"y",
      "26":"y",
      "27":"y",
      "28":"y",
      "29":"y",
      "30":"y",
      "31":"y",
      "32":"y",
      "33":"y",
      "34":"y",
      "35":"y",
      "36":"y",
      "37":"y",
      "38":"y",
      "39":"y",
      "40":"y",
      "41":"y",
      "42":"y",
      "43":"y",
      "44":"y",
      "45":"y",
      "46":"y",
      "47":"y",
      "48":"y",
      "49":"y",
      "50":"y",
      "51":"y",
      "52":"y",
      "53":"y",
      "54":"y",
      "55":"y",
      "56":"y",
      "57":"y",
      "58":"y",
      "59":"y",
      "60":"y",
      "61":"y",
      "62":"y",
      "63":"y",
      "64":"y",
      "65":"y",
      "66":"y",
      "67":"y",
      "68":"y",
      "69":"y",
      "70":"y",
      "71":"y",
      "72":"y",
      "73":"y",
      "74":"y",
      "75":"y",
      "76":"y",
      "77":"y",
      "78":"y",
      "79":"y",
      "80":"y",
      "81":"y",
      "83":"y",
      "84":"y",
      "85":"a #3 #4",
      "86":"a #3 #4",
      "87":"a #3 #4",
      "88":"a #3 #4",
      "89":"a #3 #4",
      "90":"a #3 #4",
      "91":"a #3 #4",
      "92":"a #3 #4",
      "93":"a #3 #4",
      "94":"a #3 #4",
      "95":"a #3 #4",
      "96":"a #3 #4",
      "97":"a #3 #4",
      "98":"a #3 #4",
      "99":"a #3 #4",
      "100":"a #3 #4",
      "101":"a #3 #4",
      "102":"a #3 #4",
      "103":"a #3 #4",
      "104":"a #3 #4",
      "105":"a #3 #4",
      "106":"a #3 #4",
      "107":"a #3 #4",
      "108":"a #3 #4",
      "109":"a #3 #4",
      "110":"a #3 #4",
      "111":"a #3 #4",
      "112":"a #3 #4",
      "113":"a #3 #4",
      "114":"a #3 #4",
      "115":"a #3 #4",
      "116":"a #3 #4",
      "117":"a #3 #4",
      "118":"a #3 #4",
      "119":"a #3 #4",
      "120":"a #3 #4",
      "121":"a #3 #4"
    },
    "safari":{
      "3.1":"n",
      "3.2":"n",
      "4":"n",
      "5":"n",
      "5.1":"n",
      "6":"n",
      "6.1":"n",
      "7":"y",
      "7.1":"y",
      "8":"y",
      "9":"y",
      "9.1":"y",
      "10":"y",
      "10.1":"y",
      "11":"y",
      "11.1":"y",
      "12":"y",
      "12.1":"y",
      "13":"y",
      "13.1":"y #3",
      "14":"y #3",
      "14.1":"y #3",
      "15":"y #3",
      "15.1":"y #3",
      "15.2-15.3":"y #3",
      "15.4":"y #3",
      "15.5":"y #3",
      "15.6":"y #3",
      "16.0":"y #3",
      "16.1":"y #3",
      "16.2":"y #3",
      "16.3":"y #3",
      "16.4":"y #3",
      "16.5":"y #3",
      "16.6":"y #3",
      "17.0":"y #3",
      "17.1":"y #3",
      "TP":"y #3"
    },
    "opera":{
      "9":"n",
      "9.5-9.6":"n",
      "10.0-10.1":"n",
      "10.5":"n",
      "10.6":"n",
      "11":"n",
      "11.1":"n",
      "11.5":"n",
      "11.6":"n",
      "12":"n",
      "12.1":"y",
      "15":"y",
      "16":"y",
      "17":"y",
      "18":"y",
      "19":"y",
      "20":"y",
      "21":"y",
      "22":"y",
      "23":"y",
      "24":"y",
      "25":"y",
      "26":"y",
      "27":"y",
      "28":"y",
      "29":"y",
      "30":"y",
      "31":"y",
      "32":"y",
      "33":"y",
      "34":"y",
      "35":"y",
      "36":"y",
      "37":"y",
      "38":"y",
      "39":"y",
      "40":"y",
      "41":"y",
      "42":"y",
      "43":"y",
      "44":"y",
      "45":"y",
      "46":"y",
      "47":"y",
      "48":"y",
      "49":"y",
      "50":"y",
      "51":"y",
      "52":"y",
      "53":"y",
      "54":"y",
      "55":"y",
      "56":"y",
      "57":"y",
      "58":"y",
      "60":"y",
      "62":"y",
      "63":"y",
      "64":"y",
      "65":"y",
      "66":"y",
      "67":"y",
      "68":"y",
      "69":"y",
      "70":"y",
      "71":"y",
      "72":"y",
      "73":"a #3 #4",
      "74":"a #3 #4",
      "75":"a #3 #4",
      "76":"a #3 #4",
      "77":"a #3 #4",
      "78":"a #3 #4",
      "79":"a #3 #4",
      "80":"a #3 #4",
      "81":"a #3 #4",
      "82":"a #3 #4",
      "83":"a #3 #4",
      "84":"a #3 #4",
      "85":"a #3 #4",
      "86":"a #3 #4",
      "87":"a #3 #4",
      "88":"a #3 #4",
      "89":"a #3 #4",
      "90":"a #3 #4",
      "91":"a #3 #4",
      "92":"a #3 #4",
      "93":"a #3 #4",
      "94":"a #3 #4",
      "95":"a #3 #4",
      "96":"a #3 #4",
      "97":"a #3 #4",
      "98":"a #3 #4",
      "99":"a #3 #4",
      "100":"a #3 #4",
      "101":"a #3 #4",
      "102":"a #3 #4",
      "103":"a #3 #4"
    },
    "ios_saf":{
      "3.2":"n",
      "4.0-4.1":"n",
      "4.2-4.3":"n",
      "5.0-5.1":"y",
      "6.0-6.1":"y",
      "7.0-7.1":"y",
      "8":"y",
      "8.1-8.4":"y",
      "9.0-9.2":"y",
      "9.3":"y",
      "10.0-10.2":"y",
      "10.3":"y",
      "11.0-11.2":"y",
      "11.3-11.4":"y",
      "12.0-12.1":"y",
      "12.2-12.5":"y",
      "13.0-13.1":"y",
      "13.2":"y",
      "13.3":"y",
      "13.4-13.7":"y",
      "14.0-14.4":"y",
      "14.5-14.8":"y",
      "15.0-15.1":"y",
      "15.2-15.3":"y",
      "15.4":"y",
      "15.5":"y",
      "15.6-15.7":"y",
      "16.0":"y",
      "16.1":"y",
      "16.2":"y",
      "16.3":"y",
      "16.4":"y",
      "16.5":"y",
      "16.6":"y",
      "17.0":"y",
      "17.1":"y"
    },
    "op_mini":{
      "all":"y"
    },
    "android":{
      "2.1":"n",
      "2.2":"n",
      "2.3":"n",
      "3":"n",
      "4":"n",
      "4.1":"n",
      "4.2-4.3":"n",
      "4.4":"n",
      "4.4.3-4.4.4":"n",
      "118":"y"
    },
    "bb":{
      "7":"n",
      "10":"y"
    },
    "op_mob":{
      "10":"n",
      "11":"n",
      "11.1":"n",
      "11.5":"n",
      "12":"n",
      "12.1":"y",
      "73":"y"
    },
    "and_chr":{
      "118":"y"
    },
    "and_ff":{
      "118":"y #1"
    },
    "ie_mob":{
      "10":"n d",
      "11":"y"
    },
    "and_uc":{
      "15.5":"y"
    },
    "samsung":{
      "4":"y",
      "5.0-5.4":"y",
      "6.2-6.4":"y",
      "7.2-7.4":"y",
      "8.2":"y",
      "9.2":"y",
      "10.1":"y",
      "11.1-11.2":"y",
      "12.0":"y",
      "13.0":"y",
      "14.0":"y",
      "15.0":"y",
      "16.0":"y",
      "17.0":"y",
      "18.0":"y",
      "19.0":"y",
      "20":"y",
      "21":"y",
      "22":"y"
    },
    "and_qq":{
      "13.1":"y"
    },
    "baidu":{
      "13.18":"y"
    },
    "kaios":{
      "2.5":"y",
      "3.0-3.1":"y"
    }
  },
  "notes":"TLS 1.0 & 1.1 are deprecated in Chrome, Edge, Firefox, Internet Explorer 11, & Safari.",
  "notes_by_num":{
    "1":"Firefox 68+ displays a small warning icon in the address bar when connecting over TLS 1.1",
    "2":"Firefox 78+ displays a full page dismissable warning the first time it connects over TLS 1.1",
    "3":"Chrome 85+ and Safari for MacOS 13.1+ displays `Not secure` in the address bar when connecting over TLS 1.1",
    "4":"Chrome 85+ displays a full page dismissable warning every time a new site connects over TLS 1.1"
  },
  "usage_perc_y":67.78,
  "usage_perc_a":30.16,
  "ucprefix":false,
  "parent":"",
  "keywords":"",
  "ie_id":"",
  "chrome_id":"5759116003770368",
  "firefox_id":"",
  "webkit_id":"",
  "shown":true
}
